adder/simulation/qsim/adder.msim.vcd
$comment
	File created using the following command:
		vcd file adder.msim.vcd -direction
$end
$date
	Fri Jan 27 21:08:25 2023
$end
$version
	ModelSim Version 2020.1
$end
$timescale
	1ps
$end

$scope module dabble_vlg_vec_tst $end
$var reg 1 ! In0 $end
$var reg 1 " In1 $end
$var reg 1 # In2 $end
$var reg 1 $ In3 $end
$var wire 1 % Out0 $end
$var wire 1 & Out1 $end
$var wire 1 ' Out2 $end
$var wire 1 ( Out3 $end

$scope module i1 $end
$var wire 1 ) gnd $end
$var wire 1 * vcc $end
$var wire 1 + unknown $end
$var tri1 1 , devclrn $end
$var tri1 1 - devpor $end
$var tri1 1 . devoe $end
$var wire 1 / Out0~output_o $end
$var wire 1 0 Out1~output_o $end
$var wire 1 1 Out2~output_o $end
$var wire 1 2 Out3~output_o $end
$var wire 1 3 In2~input_o $end
$var wire 1 4 In3~input_o $end
$var wire 1 5 In0~input_o $end
$var wire 1 6 In1~input_o $end
$var wire 1 7 inst5~combout $end
$var wire 1 8 inst7~combout $end
$var wire 1 9 inst8~0_combout $end
$var wire 1 : inst9~combout $end
$upscope $end
$upscope $end
$enddefinitions $end
#0
$dumpvars
0!
0"
0#
0$
0%
0&
0'
0(
0)
1*
x+
1,
1-
1.
0/
00
01
02
03
04
05
06
17
18
09
1:
$end
#5000
1$
14
0:
12
1(
#10000
1#
0$
13
04
1:
19
11
02
0(
1'
#15000
1$
14
0:
12
1(
#20000
1"
0#
0$
16
03
04
1:
08
09
01
10
02
0(
1&
0'
#25000
1$
14
18
07
1/
00
0&
1%
#30000
1#
0$
13
04
0:
12
1(
#35000
1$
14
1:
19
11
02
0(
1'
#40000
1!
0"
0#
0$
15
06
03
04
0:
12
1(
#45000
1$
14
1:
08
09
01
10
02
0(
1&
0'
#50000
1#
0$
13
04
0:
18
00
12
1(
0&
#55000
1$
14
17
0/
0%
#60000
1"
0#
0$
16
03
04
07
19
11
1/
1%
1'
#65000
1$
14
1:
08
09
01
10
02
0(
1&
0'
#70000
1#
0$
13
04
0:
18
00
12
1(
0&
#75000
1$
14
17
0/
0%
#80000
0!
0"
0#
0$
05
06
03
04
1:
02
0(
#85000
1$
14
0:
12
1(
#90000
1#
0$
13
04
1:
19
11
02
0(
1'
#95000
1$
14
0:
12
1(
#100000
1"
0#
0$
16
03
04
1:
08
09
01
10
02
0(
1&
0'
#105000
1$
14
18
07
1/
00
0&
1%
#110000
1#
0$
13
04
0:
12
1(
#115000
1$
14
1:
19
11
02
0(
1'
#120000
1!
0"
0#
0$
15
06
03
04
0:
12
1(
#125000
1$
14
1:
08
09
01
10
02
0(
1&
0'
#130000
1#
0$
13
04
0:
18
00
12
1(
0&
#135000
1$
14
17
0/
0%
#140000
1"
0#
0$
16
03
04
07
19
11
1/
1%
1'
#145000
1$
14
1:
08
09
01
10
02
0(
1&
0'
#150000
1#
0$
13
04
0:
18
00
12
1(
0&
#155000
1$
14
17
0/
0%
#160000
0!
0"
0#
0$
05
06
03
04
1:
02
0(
#165000
1$
14
0:
12
1(
#170000
1#
0$
13
04
1:
19
11
02
0(
1'
#175000
1$
14
0:
12
1(
#180000
1"
0#
0$
16
03
04
1:
08
09
01
10
02
0(
1&
0'
#185000
1$
14
18
07
1/
00
0&
1%
#190000
1#
0$
13
04
0:
12
1(
#195000
1$
14
1:
19
11
02
0(
1'
#200000
1!
0"
0#
0$
15
06
03
04
0:
12
1(
#205000
1$
14
1:
08
09
01
10
02
0(
1&
0'
#210000
1#
0$
13
04
0:
18
00
12
1(
0&
#215000
1$
14
17
0/
0%
#220000
1"
0#
0$
16
03
04
07
19
11
1/
1%
1'
#225000
1$
14
1:
08
09
01
10
02
0(
1&
0'
#230000
1#
0$
13
04
0:
18
00
12
1(
0&
#235000
1$
14
17
0/
0%
#240000
0!
0"
0#
0$
05
06
03
04
1:
02
0(
#245000
1$
14
0:
12
1(
#250000
1#
0$
13
04
1:
19
11
02
0(
1'
#255000
1$
14
0:
12
1(
#260000
1"
0#
0$
16
03
04
1:
08
09
01
10
02
0(
1&
0'
#265000
1$
14
18
07
1/
00
0&
1%
#270000
1#
0$
13
04
0:
12
1(
#275000
1$
14
1:
19
11
02
0(
1'
#280000
1!
0"
0#
0$
15
06
03
04
0:
12
1(
#285000
1$
14
1:
08
09
01
10
02
0(
1&
0'
#290000
1#
0$
13
04
0:
18
00
12
1(
0&
#295000
1$
14
17
0/
0%
#300000
1"
0#
0$
16
03
04
07
19
11
1/
1%
1'
#305000
1$
14
1:
08
09
01
10
02
0(
1&
0'
#310000
1#
0$
13
04
0:
18
00
12
1(
0&
#315000
1$
14
17
0/
0%
#320000
0!
0"
0#
0$
05
06
03
04
1:
02
0(
#325000
1$
14
0:
12
1(
#330000
1#
0$
13
04
1:
19
11
02
0(
1'
#335000
1$
14
0:
12
1(
#340000
1"
0#
0$
16
03
04
1:
08
09
01
10
02
0(
1&
0'
#345000
1$
14
18
07
1/
00
0&
1%
#350000
1#
0$
13
04
0:
12
1(
#355000
1$
14
1:
19
11
02
0(
1'
#360000
1!
0"
0#
0$
15
06
03
04
0:
12
1(
#365000
1$
14
1:
08
09
01
10
02
0(
1&
0'
#370000
1#
0$
13
04
0:
18
00
12
1(
0&
#375000
1$
14
17
0/
0%
#380000
1"
0#
0$
16
03
04
07
19
11
1/
1%
1'
#385000
1$
14
1:
08
09
01
10
02
0(
1&
0'
#390000
1#
0$
13
04
0:
18
00
12
1(
0&
#395000
1$
14
17
0/
0%
#400000
0!
0"
0#
0$
05
06
03
04
1:
02
0(
#405000
1$
14
0:
12
1(
#410000
1#
0$
13
04
1:
19
11
02
0(
1'
#415000
1$
14
0:
12
1(
#420000
1"
0#
0$
16
03
04
1:
08
09
01
10
02
0(
1&
0'
#425000
1$
14
18
07
1/
00
0&
1%
#430000
1#
0$
13
04
0:
12
1(
#435000
1$
14
1:
19
11
02
0(
1'
#440000
1!
0"
0#
0$
15
06
03
04
0:
12
1(
#445000
1$
14
1:
08
09
01
10
02
0(
1&
0'
#450000
1#
0$
13
04
0:
18
00
12
1(
0&
#455000
1$
14
17
0/
0%
#460000
1"
0#
0$
16
03
04
07
19
11
1/
1%
1'
#465000
1$
14
1:
08
09
01
10
02
0(
1&
0'
#470000
1#
0$
13
04
0:
18
00
12
1(
0&
#475000
1$
14
17
0/
0%
#480000
0!
0"
0#
0$
05
06
03
04
1:
02
0(
#485000
1$
14
0:
12
1(
#490000
1#
0$
13
04
1:
19
11
02
0(
1'
#495000
1$
14
0:
12
1(
#500000
1"
0#
0$
16
03
04
1:
08
09
01
10
02
0(
1&
0'
#505000
1$
14
18
07
1/
00
0&
1%
#510000
1#
0$
13
04
0:
12
1(
#515000
1$
14
1:
19
11
02
0(
1'
#520000
1!
0"
0#
0$
15
06
03
04
0:
12
1(
#525000
1$
14
1:
08
09
01
10
02
0(
1&
0'
#530000
1#
0$
13
04
0:
18
00
12
1(
0&
#535000
1$
14
17
0/
0%
#540000
1"
0#
0$
16
03
04
07
19
11
1/
1%
1'
#545000
1$
14
1:
08
09
01
10
02
0(
1&
0'
#550000
1#
0$
13
04
0:
18
00
12
1(
0&
#555000
1$
14
17
0/
0%
#560000
0!
0"
0#
0$
05
06
03
04
1:
02
0(
#565000
1$
14
0:
12
1(
#570000
1#
0$
13
04
1:
19
11
02
0(
1'
#575000
1$
14
0:
12
1(
#580000
1"
0#
0$
16
03
04
1:
08
09
01
10
02
0(
1&
0'
#585000
1$
14
18
07
1/
00
0&
1%
#590000
1#
0$
13
04
0:
12
1(
#595000
1$
14
1:
19
11
02
0(
1'
#600000
1!
0"
0#
0$
15
06
03
04
0:
12
1(
#605000
1$
14
1:
08
09
01
10
02
0(
1&
0'
#610000
1#
0$
13
04
0:
18
00
12
1(
0&
#615000
1$
14
17
0/
0%
#620000
1"
0#
0$
16
03
04
07
19
11
1/
1%
1'
#625000
1$
14
1:
08
09
01
10
02
0(
1&
0'
#630000
1#
0$
13
04
0:
18
00
12
1(
0&
#635000
1$
14
17
0/
0%
#640000
0!
0"
0#
0$
05
06
03
04
1:
02
0(
#645000
1$
14
0:
12
1(
#650000
1#
0$
13
04
1:
19
11
02
0(
1'
#655000
1$
14
0:
12
1(
#660000
1"
0#
0$
16
03
04
1:
08
09
01
10
02
0(
1&
0'
#665000
1$
14
18
07
1/
00
0&
1%
#670000
1#
0$
13
04
0:
12
1(
#675000
1$
14
1:
19
11
02
0(
1'
#680000
1!
0"
0#
0$
15
06
03
04
0:
12
1(
#685000
1$
14
1:
08
09
01
10
02
0(
1&
0'
#690000
1#
0$
13
04
0:
18
00
12
1(
0&
#695000
1$
14
17
0/
0%
#700000
1"
0#
0$
16
03
04
07
19
11
1/
1%
1'
#705000
1$
14
1:
08
09
01
10
02
0(
1&
0'
#710000
1#
0$
13
04
0:
18
00
12
1(
0&
#715000
1$
14
17
0/
0%
#720000
0!
0"
0#
0$
05
06
03
04
1:
02
0(
#725000
1$
14
0:
12
1(
#730000
1#
0$
13
04
1:
19
11
02
0(
1'
#735000
1$
14
0:
12
1(
#740000
1"
0#
0$
16
03
04
1:
08
09
01
10
02
0(
1&
0'
#745000
1$
14
18
07
1/
00
0&
1%
#750000
1#
0$
13
04
0:
12
1(
#755000
1$
14
1:
19
11
02
0(
1'
#760000
1!
0"
0#
0$
15
06
03
04
0:
12
1(
#765000
1$
14
1:
08
09
01
10
02
0(
1&
0'
#770000
1#
0$
13
04
0:
18
00
12
1(
0&
#775000
1$
14
17
0/
0%
#780000
1"
0#
0$
16
03
04
07
19
11
1/
1%
1'
#785000
1$
14
1:
08
09
01
10
02
0(
1&
0'
#790000
1#
0$
13
04
0:
18
00
12
1(
0&
#795000
1$
14
17
0/
0%
#800000
0!
0"
0#
0$
05
06
03
04
1:
02
0(
#805000
1$
14
0:
12
1(
#810000
1#
0$
13
04
1:
19
11
02
0(
1'
#815000
1$
14
0:
12
1(
#820000
1"
0#
0$
16
03
04
1:
08
09
01
10
02
0(
1&
0'
#825000
1$
14
18
07
1/
00
0&
1%
#830000
1#
0$
13
04
0:
12
1(
#835000
1$
14
1:
19
11
02
0(
1'
#840000
1!
0"
0#
0$
15
06
03
04
0:
12
1(
#845000
1$
14
1:
08
09
01
10
02
0(
1&
0'
#850000
1#
0$
13
04
0:
18
00
12
1(
0&
#855000
1$
14
17
0/
0%
#860000
1"
0#
0$
16
03
04
07
19
11
1/
1%
1'
#865000
1$
14
1:
08
09
01
10
02
0(
1&
0'
#870000
1#
0$
13
04
0:
18
00
12
1(
0&
#875000
1$
14
17
0/
0%
#880000
0!
0"
0#
0$
05
06
03
04
1:
02
0(
#885000
1$
14
0:
12
1(
#890000
1#
0$
13
04
1:
19
11
02
0(
1'
#895000
1$
14
0:
12
1(
#900000
1"
0#
0$
16
03
04
1:
08
09
01
10
02
0(
1&
0'
#905000
1$
14
18
07
1/
00
0&
1%
#910000
1#
0$
13
04
0:
12
1(
#915000
1$
14
1:
19
11
02
0(
1'
#920000
1!
0"
0#
0$
15
06
03
04
0:
12
1(
#925000
1$
14
1:
08
09
01
10
02
0(
1&
0'
#930000
1#
0$
13
04
0:
18
00
12
1(
0&
#935000
1$
14
17
0/
0%
#940000
1"
0#
0$
16
03
04
07
19
11
1/
1%
1'
#945000
1$
14
1:
08
09
01
10
02
0(
1&
0'
#950000
1#
0$
13
04
0:
18
00
12
1(
0&
#955000
1$
14
17
0/
0%
#960000
0!
0"
0#
0$
05
06
03
04
1:
02
0(
#965000
1$
14
0:
12
1(
#970000
1#
0$
13
04
1:
19
11
02
0(
1'
#975000
1$
14
0:
12
1(
#980000
1"
0#
0$
16
03
04
1:
08
09
01
10
02
0(
1&
0'
#985000
1$
14
18
07
1/
00
0&
1%
#990000
1#
0$
13
04
0:
12
1(
#995000
1$
14
1:
19
11
02
0(
1'
