adder/simulation/qsim/adder.msim.vcd
$comment
	File created using the following command:
		vcd file adder.msim.vcd -direction
$end
$date
	Thu Feb  2 15:02:15 2023
$end
$version
	ModelSim Version 2020.1
$end
$timescale
	1ps
$end

$scope module comparison_MT_vlg_vec_tst $end
$var reg 5 ! bitA [4:0] $end
$var reg 5 " bitB [4:0] $end
$var wire 1 # ans $end

$scope module i1 $end
$var wire 1 $ gnd $end
$var wire 1 % vcc $end
$var wire 1 & unknown $end
$var tri1 1 ' devclrn $end
$var tri1 1 ( devpor $end
$var tri1 1 ) devoe $end
$var wire 1 * ans~output_o $end
$var wire 1 + bitB[4]~input_o $end
$var wire 1 , bitA[4]~input_o $end
$var wire 1 - bitA[3]~input_o $end
$var wire 1 . bitB[3]~input_o $end
$var wire 1 / bitA[2]~input_o $end
$var wire 1 0 bitA[1]~input_o $end
$var wire 1 1 bitA[0]~input_o $end
$var wire 1 2 bitB[0]~input_o $end
$var wire 1 3 bitB[1]~input_o $end
$var wire 1 4 inst1~0_combout $end
$var wire 1 5 bitB[2]~input_o $end
$var wire 1 6 inst1~1_combout $end
$var wire 1 7 inst1~2_combout $end
$var wire 1 8 inst1~3_combout $end
$upscope $end
$upscope $end
$enddefinitions $end
#0
$dumpvars
b1011 !
b11101 "
1#
0$
1%
x&
1'
1(
1)
1*
1+
0,
1-
1.
0/
10
11
12
03
14
15
06
07
18
$end
#5000
b11 !
b111 !
b101 !
b1101 "
b101 "
b111 "
b110 "
02
13
0.
0+
00
1/
0-
04
16
08
0*
06
17
0#
07
18
1*
1#
08
0*
0#
#10000
b10101 !
b10100 !
b10000 !
b100 "
b101 "
12
03
01
0/
1,
#15000
b1101 "
b10100 !
1/
1.
#20000
b11100 !
b11110 !
b1111 "
b111 "
13
0.
10
1-
17
#25000
b10111 "
b1110 !
b1111 !
b10110 "
b1101 !
b10100 "
11
00
0,
02
03
1+
14
18
1*
16
1#
#30000
b101 !
b11100 "
b10101 !
b10100 !
b11101 "
12
1.
01
0-
1,
04
07
06
08
0*
0#
#35000
b11001 "
b10110 !
b11000 "
10
02
05
14
16
#40000
b11010 "
b10010 "
b10111 !
b10101 !
11
00
13
0.
04
17
18
1*
1#
#45000
b10001 !
b10 "
b11001 !
b110 "
b100 "
b11000 !
03
15
0+
01
0/
1-
06
08
0*
0#
#50000
b1100 "
b11100 !
b10100 !
b1000 "
b1010 "
b10101 !
11
1/
0-
13
05
1.
16
07
#55000
b101 !
b1011 "
b111 !
b11011 "
b1111 !
12
1+
10
1-
0,
17
18
1*
1#
#60000
b10011 "
b1011 !
b10001 "
b11011 !
b10000 "
b0 "
b10011 !
0/
0-
1,
02
03
0.
0+
06
14
08
0*
07
16
0#
17
#65000
b100 "
b1100 "
b10111 !
b111 !
1/
0,
15
1.
07
18
1*
1#
08
0*
0#
#70000
b110 !
b100 !
b1110 "
b11110 "
b11010 "
b10100 !
13
05
1+
01
00
1,
04
#75000
b11011 "
b11100 !
b11000 !
b11010 !
b1011 "
b1111 "
10
0/
1-
12
15
0+
06
17
07
#80000
b111 "
b1010 !
b110 "
b10 !
b110 !
b10 "
1/
0-
0,
02
05
0.
16
17
18
1*
1#
#85000
b100 !
b10100 !
b11 "
b111 "
12
15
00
1,
06
08
0*
07
0#
#90000
b101 "
b10101 "
b10000 !
b10100 "
b10000 "
0/
02
03
05
1+
#95000
b11000 "
b11000 !
b1000 !
b11001 "
1-
0,
12
1.
18
1*
1#
#100000
b1001 !
b1011 !
b11011 "
b1011 "
b1111 !
b11 "
b11111 !
13
0.
0+
11
10
1/
1,
17
16
08
0*
0#
#105000
b111 "
b10111 !
b110 "
b10110 !
b10100 !
b10110 "
01
00
0-
02
15
1+
06
18
1*
07
1#
08
0*
0#
#110000
b10100 "
b11100 "
b100 !
b11000 "
b1100 !
b11001 "
b1101 !
b1111 !
11
10
1-
0,
12
03
05
1.
14
16
18
1*
17
1#
#115000
b1001 "
b1011 "
b11 "
b11111 !
b111 "
b10111 !
b110 "
b10110 !
b10100 !
01
00
0-
1,
02
13
15
0.
0+
04
08
0*
06
0#
07
#120000
b10000 !
b0 !
b1000 !
b1001 !
b1011 !
11
10
0/
1-
0,
14
17
18
1*
1#
#125000
b1110 "
b1010 "
b1111 !
b11111 !
b10111 !
1/
0-
1,
05
1.
16
07
08
0*
0#
#130000
b1011 "
b1111 "
b11111 !
1-
12
15
17
04
06
07
#135000
b11111 "
b11101 "
b11101 !
b10101 "
b11001 !
b1001 !
00
0/
0,
03
0.
1+
17
18
1*
1#
#140000
b10100 "
b10110 "
b1011 !
b11110 "
b11011 !
10
1,
02
13
1.
14
07
08
0*
0#
#145000
b11010 "
b10011 !
b1010 "
b1011 "
b1001 "
b10001 !
b1 "
00
0-
12
03
05
0.
0+
04
16
06
17
07
#150000
b11001 !
b10001 "
1+
1-
17
18
1*
1#
#155000
b11000 !
b10011 "
b11010 !
b11011 "
13
1.
01
10
07
08
0*
0#
#160000
b1010 !
b11111 "
b10 !
b1111 "
b111 "
15
0.
0+
0-
0,
#165000
b110 !
b111 !
b101 !
11
00
1/
#170000
b110 "
b100 "
b0 "
b1 !
b0 !
01
0/
02
03
05
#175000
b1000 !
b10000 "
b1010 !
b10001 "
b10011 "
b1110 !
b1111 !
12
13
1+
11
10
1/
1-
16
17
18
1*
1#
#180000
b11111 !
b11011 "
b11111 "
b10111 !
b1111 "
b10011 !
b10010 !
15
1.
0+
01
0/
0-
1,
06
07
08
0*
0#
#185000
b10000 !
b11000 !
b11111 "
1+
00
1-
#190000
b11110 "
b10110 "
b10010 "
b11100 !
b11110 !
b10 "
10
1/
02
05
0.
0+
16
17
#195000
b11111 !
b10111 !
b11 "
b1011 "
b10101 !
12
1.
11
00
0-
07
#200000
b1001 "
b101 !
b1101 "
b1 !
b1001 !
0/
1-
0,
03
15
06
17
07
18
1*
1#
08
0*
0#
#205000
b11101 "
b1000 !
b10101 "
b10111 "
b11000 !
b10000 !
01
0-
1,
13
0.
1+
#210000
b10110 "
b10010 !
b10010 "
b10110 !
b10111 !
b10000 "
b111 !
b1111 !
11
10
1/
1-
0,
02
03
05
14
16
17
18
1*
1#
#215000
b10001 "
b10101 "
b1011 !
b1010 !
b11010 !
01
0/
1,
12
15
06
#220000
b11101 "
b11001 "
b11011 !
b1011 !
11
0,
05
1.
16
07
17
#225000
b1001 !
b11011 "
b1 !
b11010 "
b101 !
b11110 "
02
13
15
00
1/
0-
04
07
06
#230000
b11111 "
b11011 "
12
05
16
#235000
b1011 "
b11 "
b100 !
b10100 !
b111 "
01
1,
15
0.
0+
06
17
08
0*
07
0#
#240000
b10110 !
b10111 "
b10111 !
b10011 "
05
1+
11
10
16
17
18
1*
1#
#245000
b11111 !
1-
#250000
b10001 "
b11011 !
b11001 "
b1011 !
b1001 "
0/
0,
03
1.
0+
06
14
07
16
17
08
0*
0#
18
1*
1#
#255000
b1010 !
b1101 "
b10 !
b110 !
b11101 "
15
1+
01
1/
0-
07
#260000
b11100 "
b100 !
b11110 "
00
02
13
04
06
#265000
b10110 "
b10111 "
b110 !
10
12
0.
#270000
b10110 !
b10111 !
b10011 "
b10011 !
b10001 !
05
11
00
0/
1,
08
0*
0#
#275000
b11001 !
b11 "
b1 "
b1001 "
b11000 !
b11010 !
03
1.
0+
01
10
1-
14
16
17
#280000
b11110 !
b10110 !
b1011 "
b10111 !
13
11
1/
0-
04
07
#285000
b1010 "
b10 "
b11111 !
b0 "
b11110 !
01
1-
02
03
0.
14
17
#290000
b10000 "
b11100 !
b11000 "
00
1.
1+
04
18
1*
1#
#295000
b11001 "
b10100 !
b11011 "
b10101 !
b1011 "
11
0-
12
13
0+
07
08
0*
0#
#300000
b1111 "
b1101 "
b10100 !
b11101 "
01
03
15
1+
06
#305000
b100 !
b0 !
b10 !
b1010 !
b11001 "
b11011 "
b1011 !
b1011 "
13
05
0+
11
10
0/
1-
0,
#310000
b1010 "
b1111 !
b1101 !
b101 !
b1000 "
b100 !
b11000 "
01
00
1/
0-
02
03
1+
16
18
1*
1#
#315000
b0 !
b10 !
b11 !
b1000 "
0+
11
10
0/
14
06
08
0*
16
0#
#320000
b10011 !
b1100 "
b11011 !
b1110 "
b11001 !
b11000 !
b11110 "
13
15
1+
01
00
1-
1,
04
06
17
07
18
1*
1#
08
0*
0#
#325000
b10110 "
b10111 "
b1000 !
b10011 "
b10001 "
0,
12
03
05
0.
17
18
1*
1#
#330000
b1001 !
b1 "
b1001 "
b1000 "
b11001 !
b1100 "
b1110 "
02
13
15
1.
0+
11
1,
07
08
0*
0#
#335000
b11101 !
b10101 !
b10100 !
b11110 "
b10110 "
b10111 "
b10011 "
b10001 "
12
03
05
0.
1+
01
1/
0-
16
17
18
1*
1#
#340000
b100 !
b0 !
b1000 !
b1 "
b0 "
b100 "
02
15
0+
0/
1-
0,
06
#345000
b1100 "
b1100 !
b11100 "
b11000 "
1/
05
1.
1+
16
07
17
#350000
b1101 !
b11010 "
b11101 !
b11011 "
b10011 "
b11001 !
b10111 "
12
13
15
0.
11
0/
1,
06
#355000
b10001 !
b10101 "
b10101 !
b10001 "
03
05
1/
0-
16
07
17
08
0*
0#
18
1*
1#
#360000
b1 "
b101 !
b0 "
b10 "
b1 !
0/
0,
02
13
0+
06
07
08
0*
0#
#365000
b1010 "
b1001 !
b11010 "
b11011 "
b1101 !
1/
1-
12
1.
1+
16
18
1*
17
1#
#370000
b1111 !
b11111 !
b11001 "
b1001 "
b11011 !
03
0+
10
0/
1,
14
06
08
0*
16
07
0#
17
#375000
b11010 !
b1101 "
b1100 "
b11000 !
b1000 !
b1110 "
b1100 !
02
13
15
01
00
1/
0,
04
18
1*
06
1#
07
08
0*
0#
#380000
b11110 "
b1101 !
b11010 "
b11011 "
b11001 "
b1001 !
11
0/
12
03
05
1+
18
1*
1#
#385000
b1011 !
b1001 "
b1010 !
b1110 !
0+
01
10
1/
14
16
08
0*
17
0#
18
1*
1#
#390000
b1 "
b110 !
b10110 !
b101 "
b100 "
b110 "
b10111 !
11
0-
1,
02
13
15
0.
08
0*
0#
#395000
b10101 !
b1110 "
b11101 !
b1010 "
b1011 "
b1001 "
b11100 !
12
03
05
1.
01
00
1-
04
#400000
b11001 "
b1100 !
b1110 !
b10001 "
b10101 "
b10111 "
b1111 !
11
10
0,
13
15
0.
1+
06
18
1*
1#
#405000
b1011 !
b10110 "
b1001 !
b10010 "
b1000 !
02
05
01
00
0/
#410000
b0 !
b10 "
b10000 !
b10010 !
b10011 !
0+
11
10
0-
1,
14
07
08
0*
16
0#
17
#415000
b0 "
b10000 "
b11 !
b1 !
b0 !
01
00
0,
03
1+
04
18
1*
06
1#
07
#420000
b100 !
b0 "
b10100 !
0+
1/
1,
16
08
0*
17
0#
#425000
b1000 "
b1001 "
b11100 !
b11110 !
b1110 !
10
1-
0,
12
1.
14
18
1*
1#
#430000
b1011 "
b1111 !
b1011 !
b11011 "
b10011 "
b11 !
11
0/
0-
13
0.
1+
04
06
07
#435000
b10111 "
b10110 "
b1 !
b0 !
b100 !
b110 "
b1100 !
01
00
1/
1-
02
15
0+
17
08
0*
0#
18
1*
1#
#440000
b11100 !
b100 "
b0 "
b11110 !
b10000 "
03
05
1+
10
1,
14
16
#445000
b11111 !
b1111 !
b10010 "
b10 "
13
0+
11
0,
#450000
b11 "
b111 !
b111 "
b10111 !
b101 "
b10101 "
0-
1,
12
03
15
1+
#455000
b10011 !
b10001 !
b10000 !
b10100 "
b10000 "
b10010 "
02
13
05
01
00
0/
04
06
07
08
0*
0#
#460000
b11000 !
b10 "
b11100 !
b11 "
b111 "
12
15
0+
1/
1-
17
#465000
b1100 !
b1101 !
b101 !
b10111 "
b10011 "
05
1+
11
0-
0,
16
07
18
1*
17
1#
#470000
b11011 "
b111 !
b10111 !
b11111 !
b1011 "
10
1-
1,
1.
0+
08
0*
0#
#475000
b1001 "
b1000 "
b11110 !
b1110 !
b110 !
01
0-
0,
02
03
14
07
18
1*
1#
08
0*
0#
#480000
b1100 "
b100 "
b10100 "
b10110 "
b111 !
b1111 !
11
1-
13
15
0.
1+
17
18
1*
1#
#485000
b1101 !
b10111 "
b11101 !
b10101 !
12
00
0-
1,
04
06
07
08
0*
0#
#490000
b11111 "
b1111 "
b10111 !
b111 !
b1111 !
10
1-
0,
1.
0+
#495000
b1011 "
b1001 "
b1 "
b1101 !
b101 !
00
0-
03
05
0.
16
17
18
1*
1#
#500000
b100 !
b11 "
b110 !
13
01
10
#505000
b10 !
b10 "
b10010 !
b110 "
b1110 "
b11010 !
b11011 !
b1100 "
b11001 !
02
03
15
1.
11
00
0/
1-
1,
14
06
08
0*
07
0#
#510000
b11101 !
b1101 "
b1001 "
b1 "
12
05
0.
1/
04
16
17
#515000
b101 "
b1101 "
15
1.
06
07
#520000
b10101 !
b1111 "
b1110 "
b110 "
02
13
0.
0-
#525000
b101 !
b1 !
b1001 !
b111 "
12
0/
1-
0,
17
18
1*
1#
#530000
b10111 "
b1000 !
b1010 !
b10011 "
b10001 "
01
10
03
05
1+
14
16
#535000
b11001 "
b1110 !
b1001 "
b1111 !
b1101 !
b1011 "
11
00
1/
13
1.
0+
04
#540000
b11101 !
b10101 !
b1111 "
b10111 !
15
10
0-
1,
06
07
08
0*
0#
#545000
b1110 "
b10011 !
b11110 "
b10010 !
b11100 "
b10 !
b1010 !
b11000 "
01
0/
1-
0,
02
03
05
1+
14
18
1*
16
1#
17
#550000
b10000 "
b1000 !
b10001 "
b1 "
b11000 !
b101 "
00
1,
12
15
0.
0+
04
06
08
0*
0#
#555000
b11100 !
b111 "
b110 "
b1100 !
b10 "
02
13
05
1/
0,
16
18
1*
1#
#560000
b1110 !
b10010 "
b1010 !
b10000 "
b10001 "
b11010 !
b10101 "
12
03
15
1+
10
0/
1,
14
06
#565000
b11011 !
b11001 !
b11101 !
b10111 "
b1101 !
b10011 "
13
05
11
00
1/
0,
04
16
#570000
b11011 "
b1111 !
b11001 "
b11111 !
10
1,
03
1.
14
#575000
b1001 "
b11011 !
b11001 !
00
0/
0+
04
08
0*
06
0#
07
#580000
b1 "
b1001 !
b10001 "
b1101 !
b1111 !
10
1/
0,
0.
1+
14
16
17
18
1*
1#
#585000
b10000 "
b11000 "
b11111 !
b11011 !
b11001 !
00
0/
1,
02
1.
#590000
b11000 !
b1000 "
b0 "
b1000 !
b1010 !
0.
0+
01
10
0,
#595000
b100 "
b110 "
b111 "
b1011 !
b10111 "
b11111 "
b1001 !
11
00
12
13
15
1.
1+
04
06
07
#600000
b11001 !
b11011 "
b10011 "
b11011 !
05
0.
10
1,
17
08
0*
0#
18
1*
1#
#605000
b11111 !
b10001 "
b10000 "
b1111 !
02
03
1/
0,
14
16
#610000
b111 !
b110 !
b0 "
b10 !
b10 "
b11 "
12
13
0+
01
0/
0-
04
06
07
08
0*
0#
#615000
b1011 "
b10010 !
b11010 !
b1001 "
1-
1,
03
1.
14
16
17
#620000
b11000 !
b11001 !
b11001 "
b10001 !
b11011 "
13
1+
11
00
0-
04
07
18
1*
06
1#
08
0*
0#
#625000
b11111 "
b10101 !
b11110 "
b10100 !
01
1/
02
15
#630000
b1110 "
b11100 !
b1100 "
b11101 !
11
1-
03
0+
14
16
17
#635000
b100 "
b1101 !
b0 "
b1 "
b101 !
b100 !
01
0-
0,
12
05
0.
04
18
1*
1#
#640000
b11 "
b10100 !
b10101 !
11
1,
13
08
0*
0#
#645000
b10111 !
b1011 "
b11111 !
1.
10
1-
#650000
b11011 !
b11 "
0.
0/
06
#655000
b111 "
b101 "
b1011 !
b1001 !
b1 !
00
0-
0,
03
15
07
18
1*
1#
08
0*
0#
#660000
b100 "
b0 !
b110 "
b10000 !
01
1,
02
13
#665000
b10110 "
b10100 !
b10010 "
b10011 "
b100 !
1/
0,
12
05
1+
16
18
1*
17
1#
#670000
b101 !
b11 "
b111 "
b110 "
b10101 !
02
15
0+
11
1,
06
08
0*
07
0#
#675000
b1110 "
b11101 !
b1111 "
1-
12
1.
#680000
b11111 !
b11110 !
b1110 !
b111 "
0.
01
10
0,
17
18
1*
1#
#685000
b1100 !
b1111 "
1.
00
07
08
0*
0#
#690000
b1101 "
b1000 !
b1100 "
b100 "
0/
02
03
0.
17
18
1*
1#
#695000
b10100 "
b10000 "
b0 !
b1 !
b10010 "
b101 !
11
1/
0-
13
05
1+
16
07
17
#700000
b10101 !
b10011 "
b11011 "
b1011 "
b10100 !
b1001 "
12
03
1.
0+
01
1,
07
08
0*
0#
#705000
b10110 !
b1101 "
b11110 !
b1110 !
15
10
1-
0,
06
14
17
07
16
18
1*
17
1#
08
0*
0#
18
1*
1#
#710000
b1010 !
b1100 "
b11100 "
b1011 !
b11 !
b10011 !
02
1+
11
0/
0-
1,
06
07
08
0*
0#
#715000
b10100 "
b10110 "
b10010 "
b10111 !
b10011 "
b11 "
b10110 !
b11110 !
01
1/
1-
12
13
05
0.
0+
04
16
17
#720000
b1110 !
b111 "
b1010 !
15
0/
0,
06
18
1*
1#
#725000
b1111 "
b1101 "
b1100 "
b1011 !
b11011 !
b1000 "
11
1,
02
03
05
1.
14
07
08
0*
16
0#
17
#730000
b11001 !
b11000 "
b11101 !
b10000 "
b10010 "
b1101 !
b10110 "
13
15
0.
1+
00
1/
0,
04
18
1*
06
1#
#735000
b101 !
b100 !
b0 !
b11110 "
b11100 "
b11000 "
03
05
1.
01
0/
0-
07
#740000
b11001 "
b10 !
b10010 !
b11010 !
b11011 !
b10001 "
b10011 "
11
10
1-
1,
12
13
0.
17
08
0*
0#
18
1*
1#
#745000
b11111 !
b10111 "
b1111 !
b11111 "
b11101 "
03
15
1.
1/
0,
14
07
16
17
#750000
b1101 "
b1100 "
b1101 !
b101 !
b1000 "
b0 "
b10 "
00
0-
02
13
05
0.
0+
04
#755000
b10010 "
b111 !
b10110 "
10
15
1+
14
06
16
07
17
#760000
b110 !
b10 !
b10010 !
b10111 "
b11111 "
b10000 !
b11011 "
12
05
1.
01
00
0/
1,
04
07
06
08
0*
0#
#765000
b10100 !
b10110 !
b11111 "
15
10
1/
#770000
b11101 "
b1101 "
b10111 !
b10101 !
b1001 "
11
00
03
05
0+
16
#775000
b11101 !
b1000 "
b0 "
b11001 !
b10 "
b11000 !
b110 "
02
13
15
0.
01
0/
1-
06
17
#780000
b10110 "
b11110 "
b11001 !
11
1.
1+
07
18
1*
1#
08
0*
0#
#785000
b11111 "
b11101 "
b10101 "
b11000 !
01
12
03
0.
17
18
1*
1#
#790000
b11001 !
11
#795000
b11011 !
b11111 !
b10100 "
b11100 "
b11110 !
02
1.
01
10
1/
14
07
16
08
0*
17
0#
18
1*
1#
#800000
b1110 !
b11101 "
12
0,
#805000
b110 !
b1101 "
0+
0-
07
08
0*
0#
#810000
b1001 "
b1011 "
b10 !
b11 "
b10010 !
b10 "
b11010 !
b10010 "
0/
1-
1,
02
13
05
0.
1+
17
04
06
18
1*
1#
#815000
b11000 !
b11001 !
b10000 "
b11101 !
b1101 !
b10001 "
b101 !
b1 "
12
03
0+
11
00
1/
0-
0,
16
07
17
08
0*
0#
18
1*
1#
#820000
b101 "
b1101 "
b1111 "
b10101 !
b1110 "
b11110 "
1,
02
13
15
1.
1+
06
07
08
0*
0#
#825000
b10111 !
b10110 !
b10110 "
b10100 "
b110 !
b100 "
03
0.
0+
01
10
0,
14
16
17
18
1*
1#
#830000
b1110 !
b0 "
b1 "
b1100 !
b11 "
b10011 "
12
13
05
1+
00
1-
04
#835000
b1101 !
11
#840000
b1001 !
b11011 "
b11001 !
b11010 "
b11011 !
b1010 "
b11010 !
02
1.
0+
01
10
0/
1,
06
08
0*
07
0#
#845000
b11110 !
b1110 !
b1100 !
b11010 "
1+
00
1/
0,
16
18
1*
17
1#
#850000
b11110 "
b10110 "
b10111 "
b1101 !
b11101 !
b11111 !
11
10
1,
12
15
0.
06
#855000
b111 "
b11101 !
00
0+
08
0*
0#
#860000
b110 "
02
#865000
b10101 !
b100 "
b0 "
b10000 "
b10111 !
b10001 "
12
03
05
1+
10
0-
14
16
07
18
1*
17
1#
08
0*
0#
18
1*
1#
#870000
b10011 !
b10010 !
b11010 !
b10011 "
b10010 "
02
13
01
0/
1-
04
06
#875000
b10110 "
b110 "
15
0+
08
0*
0#
#880000
b11011 !
11
14
#885000
b1011 !
b1111 !
b100 "
b1110 !
03
01
1/
0,
16
18
1*
1#
#890000
b1100 "
b1000 "
b11000 "
b11110 !
b11010 "
b11111 !
11
1,
13
05
1.
1+
#895000
b10111 !
b11011 "
b10011 !
b11111 "
b1111 "
12
15
0+
0/
0-
04
06
07
08
0*
0#
#900000
b11 !
b1101 "
b11101 "
03
1+
0,
14
18
1*
1#
#905000
b1 !
b0 !
b11001 "
b10000 !
05
01
00
1,
16
04
08
0*
06
0#
#910000
b10001 "
b11000 !
b10000 "
b10010 "
b10 "
b11001 !
11
1-
02
13
0.
0+
17
#915000
b110 "
b10001 !
b111 "
b101 "
0-
12
03
15
07
#920000
b10101 !
b10101 "
b10100 !
b10001 "
b10011 "
13
05
1+
01
1/
16
17
18
1*
1#
#925000
b100 !
b11011 "
b1100 !
b1000 !
b1011 "
1.
0+
0/
1-
0,
06
07
08
0*
0#
#930000
b1001 !
b11001 !
b11101 !
11
1/
1,
16
17
#935000
b11111 !
b1111 "
b1101 "
b10111 !
b11101 "
b10110 !
b110 !
03
15
1+
01
10
0-
0,
14
06
07
18
1*
16
1#
#940000
b111 !
11
#945000
b11100 "
b11000 "
b1111 !
b1000 "
b11111 !
1-
1,
02
05
0+
17
08
0*
0#
#950000
b0 "
b10 "
b11110 !
b11 "
b10011 "
b1110 !
01
0,
12
13
0.
1+
04
18
1*
1#
#955000
b1100 !
b100 !
b10001 "
03
00
0-
#960000
b101 !
b10000 "
b10010 "
02
13
11
#965000
b1 !
b10110 "
b10001 !
b11001 !
b11000 !
15
01
0/
1-
1,
06
#970000
b11110 "
b1110 "
b11010 !
b1111 "
b1101 "
b10010 !
10
0-
12
03
1.
0+
14
07
08
0*
0#
#975000
b1001 "
b10011 !
b11011 !
11
1-
05
16
17
#980000
b1 "
b10001 "
b10011 "
b10111 "
b11010 !
01
13
15
0.
1+
04
06
18
1*
1#
#985000
b10110 "
b10010 !
b10100 "
b10000 "
0-
02
03
05
07
14
16
08
0*
17
0#
18
1*
1#
#990000
b10110 !
b110 !
b0 "
b111 !
b100 "
15
0+
11
1/
0,
#995000
b101 !
b110 "
b10101 !
b10110 "
13
1+
00
1,
04
06
07
08
0*
0#
