adder/simulation/qsim/adder.msim.vcd
$comment
	File created using the following command:
		vcd file adder.msim.vcd -direction
$end
$date
	Fri Jan 27 10:33:37 2023
$end
$version
	ModelSim Version 2020.1
$end
$timescale
	1ps
$end

$scope module xor_bitbit_vlg_vec_tst $end
$var reg 5 ! A [4:0] $end
$var reg 5 " B [4:0] $end
$var wire 1 # Ans_Xor [4] $end
$var wire 1 $ Ans_Xor [3] $end
$var wire 1 % Ans_Xor [2] $end
$var wire 1 & Ans_Xor [1] $end
$var wire 1 ' Ans_Xor [0] $end

$scope module i1 $end
$var wire 1 ( gnd $end
$var wire 1 ) vcc $end
$var wire 1 * unknown $end
$var tri1 1 + devclrn $end
$var tri1 1 , devpor $end
$var tri1 1 - devoe $end
$var wire 1 . Ans_Xor[4]~output_o $end
$var wire 1 / Ans_Xor[3]~output_o $end
$var wire 1 0 Ans_Xor[2]~output_o $end
$var wire 1 1 Ans_Xor[1]~output_o $end
$var wire 1 2 Ans_Xor[0]~output_o $end
$var wire 1 3 B[4]~input_o $end
$var wire 1 4 A[4]~input_o $end
$var wire 1 5 inst6~combout $end
$var wire 1 6 B[3]~input_o $end
$var wire 1 7 A[3]~input_o $end
$var wire 1 8 inst5~combout $end
$var wire 1 9 B[2]~input_o $end
$var wire 1 : A[2]~input_o $end
$var wire 1 ; inst4~combout $end
$var wire 1 < B[1]~input_o $end
$var wire 1 = A[1]~input_o $end
$var wire 1 > inst3~combout $end
$var wire 1 ? B[0]~input_o $end
$var wire 1 @ A[0]~input_o $end
$var wire 1 A inst~combout $end
$upscope $end
$upscope $end
$enddefinitions $end
#0
$dumpvars
b1011 !
b11110 "
1'
0&
1%
0$
1#
0(
1)
x*
1+
1,
1-
1.
0/
10
01
12
13
04
15
16
17
08
19
0:
1;
1<
1=
0>
0?
1@
1A
$end
#5000
b11 !
b111 !
b101 !
b100 !
b10110 "
b10010 "
b10000 "
0<
09
06
0@
0=
1:
07
0A
02
0'
#10000
b1100 !
b1000 !
b1001 !
b11000 "
b11100 "
19
16
1@
0:
17
1A
12
1'
#15000
b1100 "
b1101 "
b1011 !
b11 !
b10 !
0@
1=
07
1?
03
1>
18
05
0.
1/
11
1&
1$
0#
#20000
b10010 !
b1111 "
b10110 !
b111 "
b110 "
b10100 !
0?
1<
06
0=
1:
14
0A
08
0;
15
1.
00
0/
02
0'
0$
0%
1#
#25000
b10 "
b11100 !
b11101 !
b11001 !
b1010 "
b11011 !
1@
1=
0:
17
09
16
1A
0>
01
12
1'
0&
#30000
b11010 "
b1011 !
b11000 "
b11001 "
b11101 "
b11 !
b111 !
b10101 "
b101 !
0=
1:
07
04
1?
0<
19
06
13
0A
02
0'
#35000
b100 !
b10100 !
b10111 "
b10011 "
b11100 !
1<
09
0@
17
14
1>
1;
1A
18
05
0.
1/
12
10
11
1&
1%
1'
1$
0#
#40000
b10010 "
b11000 !
b11010 "
b11001 !
b1001 !
b11000 "
b11100 "
1@
0:
04
0?
0<
19
16
15
0>
08
0/
01
1.
1#
0&
0$
#45000
b1100 "
b1011 !
b11 !
b1101 "
b1111 "
b1011 "
1=
07
1?
1<
09
03
18
0A
0;
05
0.
00
02
1/
1$
0'
0%
0#
#50000
b11 "
b10 !
b10010 !
b10011 "
b10010 "
b10000 "
b10100 "
0@
14
0?
0<
19
06
13
1>
1;
08
0/
10
11
1&
1%
0$
#55000
b10110 !
b11100 "
b10111 !
b11101 "
b11001 "
1?
09
16
1@
1:
18
1/
1$
#60000
b11111 !
b1001 "
b1000 "
0?
03
17
1A
15
08
0/
1.
12
1'
1#
0$
#65000
b11101 !
b1101 !
b1001 !
b0 "
b1000 !
b0 !
06
0@
0=
0:
07
04
0A
0>
0;
05
0.
00
01
02
0'
0&
0%
0#
#70000
b100 "
b10 !
b110 !
b111 !
b1111 !
1@
1=
1:
17
19
1A
1>
18
1/
11
12
1'
1&
1$
#75000
b10100 "
b11111 !
b11101 !
b10101 !
0=
07
14
13
0>
08
0/
01
0&
0$
#80000
b10110 "
b10111 "
b10011 "
b10001 !
b10000 !
b11 "
b11000 !
0@
0:
17
1?
1<
09
03
18
1>
15
1.
11
1/
1$
1&
1#
#85000
b1011 "
b1000 !
b1010 !
b1010 "
b1110 !
b1111 !
b11010 "
b111 !
1@
1=
1:
07
04
0?
16
13
0>
1;
10
01
0&
1%
#90000
b11110 "
b10110 "
b1111 !
17
19
06
0;
00
0%
#95000
b10100 "
b10101 "
b1011 !
b1010 !
b11101 "
b10 !
0@
0:
07
1?
0<
16
1;
1>
11
10
1%
1&
#100000
b10010 !
b10000 !
b11001 "
b11011 "
b11010 "
b10100 !
b10101 !
b10010 "
b11101 !
0?
1<
09
06
1@
0=
1:
17
14
05
0.
0#
#105000
b10 "
b1101 !
b110 "
b1001 !
b1000 !
b0 !
0@
0:
07
04
19
03
0A
08
0/
02
0'
0$
#110000
b10 !
b100 "
b1100 "
b11100 "
b10010 !
b11000 "
b10011 !
b11011 !
0<
09
16
13
1@
1=
17
14
0;
1A
12
00
0%
1'
#115000
b11001 "
b11001 !
b1001 !
b11101 "
b1 !
0=
07
04
1?
19
0>
18
15
0A
1;
10
02
1.
1/
01
0&
1$
1#
0'
1%
#120000
b101 !
b100 !
b10100 !
b11100 !
0@
1:
17
14
1A
0;
08
05
0.
0/
00
12
1'
0%
0$
0#
#125000
b11100 "
b11110 !
b11000 "
b11010 !
1=
0:
0?
09
1>
0A
02
11
1&
0'
#130000
b1000 "
b1010 !
b1000 !
0=
04
03
0>
01
0&
#135000
b0 "
b1001 !
b1101 !
b10000 "
b11101 !
b11111 !
1@
1=
1:
14
06
13
1A
1>
1;
18
1/
10
11
12
1'
1&
1%
1$
#140000
b10111 !
b10100 "
b111 !
19
07
04
0;
08
15
1.
0/
00
0%
0$
1#
#145000
b10110 "
b10111 "
b11111 "
b1111 "
b101 !
b10101 !
0=
14
1?
1<
16
03
0A
18
1/
02
0'
1$
#150000
b10001 !
b1011 "
b1001 "
b1 "
b10001 "
b10011 !
b11 !
0<
09
06
13
1=
0:
04
08
0/
0$
#155000
b10000 "
b0 "
b10011 !
14
0?
03
1A
12
1'
#160000
b10010 !
b11010 !
b10 "
b1010 "
b11000 !
b1000 !
1<
16
0@
0=
17
04
0A
05
0.
02
0'
0#
#165000
b1100 !
b11010 "
b1101 !
b1111 !
13
1@
1=
1:
15
1A
0>
1;
10
01
12
1.
1#
1'
0&
1%
#170000
b11011 "
b1011 "
b1110 !
b1100 !
0@
0=
1?
03
1>
05
0.
11
1&
0#
#175000
b100 !
b1001 "
b1 "
b110 !
0<
06
1=
07
#180000
b10 !
b1010 !
b1001 "
b1000 !
16
0=
0:
17
0>
0;
00
01
0&
0%
#185000
b1101 "
b1100 "
b11100 "
b11110 "
b1100 !
b1110 !
1=
1:
0?
1<
19
13
0A
15
1.
02
0'
1#
#190000
b1111 !
b11010 "
b1010 "
b1000 "
b1011 !
0<
09
03
1@
0:
1>
05
1A
12
0.
11
1&
0#
1'
#195000
b11011 !
b10011 !
b10010 !
b11000 "
13
0@
07
14
0A
18
1/
02
0'
1$
#200000
b10000 "
b10000 !
b10010 "
b10100 !
b100 !
b101 !
1@
0=
1:
04
1<
06
1A
1;
15
08
0/
1.
10
12
1'
1%
1#
0$
#205000
b10110 "
b1101 !
b11110 "
b11100 "
b1001 !
0:
17
0<
19
16
0>
01
0&
#210000
b1100 "
b1011 !
b11011 !
b11010 !
b10010 !
b1110 "
b10110 !
0@
1=
1:
07
14
1<
03
0A
0;
18
1/
00
02
0'
0%
1$
#215000
b11110 "
b10100 !
b10101 !
b11101 !
b11001 !
1@
0=
0:
17
13
1A
1>
1;
08
05
0.
0/
10
11
12
1'
1&
1%
0$
0#
#220000
b11111 "
b11011 "
b11000 !
0@
1?
09
0;
00
0%
#225000
b10011 "
b1000 !
b10001 "
b0 !
b100 !
b101 !
1@
1:
07
04
0<
06
0A
1;
15
0>
01
1.
10
02
0'
1%
1#
0&
#230000
b1 "
b0 "
b100 "
b1100 "
b10101 !
b1110 "
b11101 !
b11001 !
0:
17
14
0?
1<
19
16
03
1A
1>
11
12
1'
1&
#235000
b11000 !
b11110 "
b11010 "
b11000 "
0<
09
13
0@
0>
0;
05
0A
02
0.
00
01
0&
0%
0#
0'
#240000
b11010 !
b10000 "
b1010 !
b1110 !
b1111 !
06
1@
1=
1:
04
18
1A
1>
1;
15
1.
10
11
12
1/
1$
1'
1&
1%
1#
#245000
b10001 "
b10011 "
b11111 !
14
1?
1<
05
0A
0>
01
02
0.
0#
0'
0&
#250000
b11 "
b111 "
b11110 !
b110 "
b100 "
b1110 !
0@
04
0?
0<
19
03
1>
0;
00
11
1&
0%
#255000
b1100 !
b1100 "
b1000 !
b1101 "
b11000 !
1?
16
0=
0:
14
1A
08
0>
1;
15
1.
10
01
0/
12
1'
0$
0&
1%
1#
#260000
b11101 "
b11001 "
b11011 "
b10011 "
b11100 !
b10010 "
b1100 !
1:
04
0?
1<
09
06
13
0A
1>
18
1/
11
02
0'
1&
1$
#265000
b1110 !
b10000 "
b11000 "
b11110 !
0<
16
1=
14
08
05
0.
0/
0$
0#
#270000
b11111 !
b11101 !
b10000 "
06
1@
0=
18
1A
0>
01
12
1/
1$
1'
0&
#275000
b10101 !
b10001 !
b10001 "
b1 !
1?
0:
07
04
0A
0;
08
15
1.
0/
00
02
0'
0%
0$
1#
#280000
b11 !
b11001 "
b1011 !
b1111 !
b11000 "
b11111 !
0?
16
1=
1:
17
14
1A
1>
1;
05
0.
10
11
12
1'
1&
1%
0#
#285000
b11010 "
b10111 !
b10011 !
b11011 "
b11 !
0:
07
04
1?
1<
0;
18
15
0A
0>
01
02
1.
1/
00
0%
1$
1#
0'
0&
#290000
b1 !
b11001 "
b1001 !
b1101 !
0<
0=
1:
17
1;
08
0/
10
1%
0$
#295000
b11101 !
14
05
0.
0#
#300000
b11101 "
b10101 "
b10100 "
b11111 !
b10111 !
b10011 !
1=
0:
07
0?
19
06
1>
1A
12
11
1&
1'
#305000
b10110 "
b10111 "
b10001 !
0=
1?
1<
0A
02
0'
#310000
b111 "
b1 !
b11 "
b1 "
b0 "
04
0?
0<
09
03
1A
0>
0;
00
01
12
1'
0&
0%
#315000
b1000 "
b1001 !
b11001 !
b1100 "
b1110 "
b1111 "
17
14
1?
1<
19
16
15
0A
1>
1;
10
11
02
1.
1#
0'
1&
1%
#320000
b11011 !
b11111 "
b10111 "
b1011 !
b10110 "
0?
06
13
1=
04
1A
18
0>
01
1/
12
1'
1$
0&
#325000
b10100 "
b11100 "
b11011 !
14
0<
16
05
1>
08
0/
11
0.
0#
1&
0$
#330000
b11010 !
b10010 !
b10000 !
b1100 "
b1110 "
1<
03
0@
0=
07
15
0A
18
1/
02
1.
1#
0'
1$
#335000
b10100 !
b1111 "
b111 "
b10101 !
b10111 "
b10101 "
1?
0<
06
13
1@
1:
0>
08
05
0;
00
0.
0/
01
0&
0$
0#
0%
#340000
b101 !
b10100 "
0?
04
1A
15
1.
12
1'
1#
#345000
b10000 "
b111 !
b11 !
b0 "
b1 "
1=
0:
1?
09
03
1>
0A
05
0.
02
11
1&
0'
0#
#350000
b1011 !
b1111 !
b10001 "
13
1:
17
15
1;
18
1/
10
1.
1#
1%
1$
#355000
b11001 "
b11111 !
b11101 !
b11000 "
b10101 !
b10001 !
0=
0:
07
14
0?
16
0>
0;
05
1A
12
0.
00
01
0&
0%
0#
1'
#360000
b10000 !
b11100 "
b10010 !
b11101 "
b11010 !
b11110 !
1?
19
0@
1=
1:
17
1>
08
0/
11
1&
0$
#365000
b11111 "
b1111 "
b111 "
b11111 !
b11 "
b11101 !
b10 "
1@
0=
0?
1<
09
06
03
1;
18
15
1.
1/
10
1%
1$
1#
#370000
b1101 !
b1100 !
b1110 !
b11 "
1?
0@
1=
04
0>
05
0.
01
0&
0#
#375000
b110 !
b10011 "
b10110 !
b10111 !
13
1@
07
14
0A
08
0/
02
0'
0$
#380000
b10011 !
b10111 "
b10110 "
b110 "
0?
19
03
0:
1A
15
1.
12
1'
1#
#385000
b1110 "
b1111 "
b11111 "
1?
16
13
0A
18
05
0.
1/
02
0'
1$
0#
#390000
b11 !
b10 !
b110 !
b10111 "
b10110 "
0?
06
0@
1:
04
08
0;
15
1.
00
0/
0$
0%
1#
#395000
b1110 !
b110 "
b1111 !
b1011 !
b1110 "
16
03
1@
0:
17
05
1A
1;
10
12
0.
0#
1'
1%
#400000
b1001 !
b1111 "
1?
0=
0A
1>
11
02
0'
1&
#405000
b1011 "
b11001 !
b11000 !
b11100 !
b11110 !
0@
1=
1:
14
09
1A
0>
15
1.
01
12
1'
0&
1#
#410000
b11 "
b10 "
b110 "
b1110 !
b1111 !
b1011 !
b1001 !
1@
0=
0:
04
0?
19
06
1>
05
18
1/
0.
11
1&
0#
1$
#415000
b100 "
b10100 "
b11001 !
b11000 !
b11100 !
0@
1:
14
0<
13
0A
0;
0>
01
00
02
0'
0%
0&
#420000
b11100 "
b11000 "
b11110 !
b11010 "
b1010 "
b1110 !
b1111 !
b1011 !
1@
1=
0:
04
1<
09
16
03
1A
08
0/
12
1'
0$
#425000
b11 !
b1011 "
b11 "
b111 "
b101 "
b10 !
b110 !
1?
0<
19
06
0@
1:
07
1>
11
1&
#430000
b100 !
b10101 "
b10100 !
b11100 !
b10100 "
b10000 "
b10010 "
b11101 !
b11001 !
0?
1<
09
13
1@
0=
0:
17
14
18
1/
1$
#435000
b10 "
b1001 !
b0 "
b1000 !
b1100 !
0@
1:
04
0<
03
0A
1;
0>
01
10
02
0'
1%
0&
#440000
b1000 "
b1001 "
b11001 "
1?
16
13
1A
08
15
1.
0/
12
1'
0$
1#
#445000
b1110 !
b110 !
b11101 "
b11111 "
b111 !
b11110 "
b1110 "
0?
1<
19
03
1@
1=
07
0;
05
18
1/
0.
00
0%
0#
1$
#450000
b10111 !
b10011 !
b1111 "
b11111 "
1?
13
0:
14
0A
1;
10
02
0'
1%
#455000
b10001 !
b10000 !
b0 !
b11110 "
0?
0@
0=
04
1>
15
1.
11
1&
1#
#460000
b1000 !
b11010 "
b1010 !
b1011 !
b11011 !
09
1@
1=
17
14
0;
1A
0>
08
05
0.
0/
01
12
00
0%
1'
0&
0$
0#
#465000
b11000 "
b1000 "
b11001 !
b1001 !
0=
04
0<
03
#470000
b1100 "
b1000 !
b1110 "
b1010 !
0@
1=
1<
19
0A
1;
10
02
0'
1%
#475000
b110 "
b1110 !
b111 "
b110 !
b10111 "
b10011 "
b111 !
b101 !
1@
0=
1:
07
1?
09
06
13
1>
15
1.
11
1&
1#
#480000
b10101 !
b11011 "
b11010 "
b11101 !
b1010 "
b1110 "
b11100 !
0?
19
16
03
0@
17
14
0;
00
0%
#485000
b11000 !
b110 "
b10000 !
b10001 !
06
1@
0:
07
1A
1;
10
12
1'
1%
#490000
b100 "
b10011 !
b11 !
b101 "
b10101 "
b111 !
b11101 "
b1111 !
b1110 !
0@
1=
1:
17
04
1?
0<
16
13
0;
00
0%
#495000
b11001 "
b1100 !
b11100 !
b11000 "
b11000 !
b11001 !
1@
0=
0:
14
0?
09
0>
05
0.
01
0&
0#
#500000
b11010 "
b11110 "
b1001 !
b1101 !
b1100 !
0@
1:
04
1<
19
0A
15
1>
11
1.
02
0'
1#
1&
#505000
b10110 "
b100 !
b110 !
b10100 "
b10110 !
b10111 !
1@
1=
07
14
0<
06
1A
05
0.
12
1'
0#
#510000
b100 "
b10011 !
b1100 "
b10001 !
b1 !
0=
0:
04
16
03
0>
1;
18
1/
10
01
0&
1%
1$
#515000
b1000 "
b1001 !
b1010 "
b1000 !
b11010 "
b1100 !
b10010 "
b1110 !
b11110 !
0@
1=
1:
17
14
1<
09
06
13
0A
02
0'
#520000
b10011 "
b10111 "
b10110 !
b10101 "
b10111 !
b111 !
1@
07
04
1?
0<
19
08
15
1>
0;
00
11
1.
0/
0$
1#
1&
0%
#525000
b101 !
b10100 "
b10000 "
b1101 !
b10010 "
b1100 !
0?
1<
09
0@
0=
17
1;
18
1/
10
1%
1$
#530000
b10 "
b1000 !
b11000 !
b11010 !
b0 "
1=
0:
14
0<
03
0;
00
0%
#535000
b1 "
b10010 !
b10011 !
b11 !
b1 !
1@
0=
07
04
1?
0>
08
05
0.
0/
01
0&
0$
0#
#540000
b1001 "
b1011 "
b1001 !
b1011 !
1=
17
1<
16
#545000
b11011 "
b1010 !
b11010 !
b11001 "
b10010 !
b10000 !
0@
0=
07
14
0<
13
1A
18
1/
12
1'
1$
#550000
b11101 "
b11000 !
b11010 !
1=
17
19
1>
08
1;
10
0/
11
1&
0$
1%
#555000
b11100 "
b1100 "
b1010 !
b1110 "
b10 !
07
04
0?
1<
03
18
0A
0>
01
02
1/
1$
0'
0&
#560000
b110 "
b11 !
b10 "
b1 !
b11 "
1@
0=
1?
09
06
1>
0;
08
0/
00
11
1&
0%
0$
#565000
b101 !
b10011 "
b10101 !
b11101 !
b11011 "
b11100 !
b11111 "
b11110 "
0?
19
16
13
0@
1:
17
14
#570000
b11100 "
b11000 !
b1100 "
b1000 !
b0 !
b100 "
b1 !
1@
0:
07
04
0<
06
03
1A
1;
0>
01
10
12
1'
1%
0&
#575000
b101 "
b10101 "
b1001 !
b1000 !
0@
17
1?
13
18
15
1.
1/
1$
1#
#580000
b11000 !
b11101 "
16
14
08
05
0.
0/
0$
0#
#585000
b11001 "
b11100 !
b11000 "
b1000 "
b10100 !
b10101 !
b101 !
1@
1:
07
04
0?
09
03
18
1/
1$
#590000
b0 "
b1 "
b10001 "
1?
06
13
0A
08
15
1.
0/
02
0'
0$
1#
#595000
b10101 "
b1101 !
b11101 "
b11100 "
b1100 "
17
0?
19
16
03
1A
0;
05
0.
00
12
1'
0%
0#
#600000
b1110 "
b11101 !
b1010 "
b10101 !
b1011 "
07
14
1?
1<
09
18
15
0A
1>
1;
10
11
02
1.
1/
1$
1#
0'
1&
1%
#605000
b10111 !
b10011 !
b11 "
b11 !
b1011 !
06
1=
0:
17
04
0>
0;
05
0.
00
01
0&
0%
0#
#610000
b10011 "
b10111 "
b10110 "
b11110 "
b11011 !
14
0?
19
16
13
1A
1;
08
0/
10
12
1'
1%
0$
#615000
b11010 !
b11000 !
b1110 "
b1010 "
b1011 "
b11 "
1?
09
06
03
0@
0=
0;
18
15
1>
11
1.
1/
00
0%
1$
1#
1&
#620000
b10011 "
b10111 "
b10110 "
b11110 "
0?
19
16
13
0A
1;
08
05
0.
0/
10
02
0'
1%
0$
0#
#625000
b11100 "
b11100 !
b10100 !
b100 !
b110 !
b11101 "
1=
1:
07
04
1?
0<
0;
18
15
1A
12
1.
1/
00
0%
1$
1#
1'
#630000
b10 !
0:
1;
10
1%
#635000
b11 !
b1101 "
b101 "
b111 "
b1 !
1<
06
03
1@
0=
08
05
0A
02
0.
0/
0$
0#
0'
#640000
b11 "
b1 "
0<
09
0>
0;
00
01
0&
0%
#645000
b1001 !
b1101 !
b1001 "
b1101 "
b1111 "
1<
19
16
1:
17
1>
11
1&
#650000
b11101 !
b1110 "
b11100 !
b11110 "
b10100 !
b11010 "
0?
09
13
0@
07
14
1;
18
1/
10
1%
1$
#655000
b10110 !
b11000 "
b11100 "
0<
19
1=
0;
00
0%
#660000
b11110 !
b11100 !
0=
17
0>
08
0/
01
0&
0$
#665000
b10100 "
b1100 !
b10101 "
b1101 !
b10001 "
b101 !
1@
07
04
1?
09
06
15
1;
10
1.
1#
1%
#670000
b1 "
b11 "
b111 !
b1011 "
b10111 !
b1010 "
b1110 "
1=
14
0?
1<
19
16
03
1A
0;
18
1/
00
12
1'
0%
1$
#675000
b11111 !
b11101 !
b1101 !
b1010 "
09
0=
17
04
1;
1>
08
05
0.
0/
11
10
1%
1&
0$
0#
#680000
b1001 !
b10 "
b1 !
b11 !
b110 "
19
06
1=
0:
07
0>
01
0&
#685000
b100 "
b10011 !
b10111 !
b10101 !
0=
1:
14
0<
0;
15
1.
00
0%
1#
#690000
b10100 !
b10100 "
b10101 "
b11101 "
b11100 !
b11111 "
b1100 !
b1110 !
1?
1<
16
13
0@
1=
17
04
#695000
b1010 !
b1011 !
b11110 "
b11 !
b1 !
0?
1@
0=
0:
07
1>
1;
18
1/
10
11
1&
1%
1$
#700000
b11010 "
b10010 "
b10000 "
b10001 !
b10101 !
b10001 "
b11101 !
1:
17
14
1?
0<
09
06
05
0A
0>
01
02
0.
0#
0'
0&
#705000
b11111 !
b10101 "
19
1=
0;
1>
11
00
0%
1&
#710000
b1111 !
b1101 !
0=
04
0>
15
1.
01
0&
1#
#715000
b1100 !
b11101 "
b11111 "
b1000 !
b0 !
b10000 !
b10010 !
1<
16
0@
1=
0:
07
14
1A
1;
05
0.
10
12
1'
1%
0#
#720000
b1111 "
b1011 "
b11 "
b1 "
b10110 !
b11110 !
b1110 !
b1100 !
0=
1:
17
04
0<
09
06
03
#725000
b1101 !
b10001 "
b11001 "
b11011 "
b1111 !
1<
16
13
1@
1=
08
15
0A
02
1.
0/
0$
1#
0'
#730000
b11010 "
b111 !
b10111 !
b11000 "
07
14
0?
0<
18
05
1A
1>
11
12
0.
1/
1$
0#
1'
1&
#735000
b11100 "
b10110 !
b1100 "
b100 "
b10100 !
b101 "
b100 !
0@
0=
04
1?
19
06
03
0>
0;
08
0/
00
01
0&
0%
0$
#740000
b0 !
b111 "
b10 !
1<
1=
0:
1;
10
1%
#745000
b1010 !
b1011 !
b10111 "
b10110 "
b1111 !
b10100 "
0?
0<
13
1@
1:
17
1>
15
0;
18
1/
00
1.
11
1&
1#
0%
1$
#750000
b10000 "
b1101 !
b101 !
b0 "
b1 "
b1 !
b11 "
0=
0:
07
1?
1<
09
03
08
0A
05
0.
02
0/
0$
0'
0#
#755000
b1011 "
b10001 !
b10000 !
b1001 "
0@
14
0<
16
1A
15
0>
18
1/
01
1.
12
1'
1#
0&
1$
#760000
b11000 !
b11001 "
b10001 "
b11001 !
b10011 "
1<
06
13
1@
17
1>
05
0A
02
0.
11
1&
0#
0'
#765000
b11011 !
b10010 "
b11111 !
b1111 !
b10 "
b1010 "
b1000 "
0?
0<
16
03
1=
1:
04
1A
08
1;
10
0/
12
1'
0$
1%
#770000
b111 !
b101 !
b1001 "
b1 !
b10001 !
b11001 "
1?
13
0=
0:
07
14
0A
0>
0;
18
1/
00
01
02
0'
0&
0%
1$
#775000
b11101 "
b10000 !
b10101 "
b11000 !
b11010 !
0@
1=
17
19
06
1A
1>
1;
10
11
12
1'
1&
1%
#780000
b10111 "
b11110 !
b111 "
b11111 !
b1111 "
b10111 !
1@
1:
07
1<
16
03
0A
0;
0>
15
1.
01
00
02
0'
0%
0&
1#
#785000
b10011 !
b10010 !
b111 "
06
0@
0:
08
1A
1;
10
12
0/
0$
1'
1%
#790000
b110 "
b10 !
b10 "
b0 !
b100 !
b101 !
1@
0=
1:
04
0?
09
1>
05
0.
11
1&
0#
#795000
b0 "
b1000 "
b1001 "
b10101 !
b10100 !
0@
14
1?
0<
16
15
0>
18
1/
01
1.
1#
0&
1$
#800000
b11001 "
b11101 "
b10110 !
b10010 !
b11111 "
b10111 "
b10 !
b11 !
1@
1=
0:
04
1<
19
06
13
0A
08
0/
02
0'
0$
#805000
b10110 "
b110 "
b10 "
b111 !
b1010 "
1:
0?
09
16
03
1A
18
05
0.
1/
12
1'
1$
0#
#810000
b101 !
b1000 "
b10101 !
b1001 "
b1101 "
1?
0<
19
0=
14
0A
0;
15
1.
00
02
0'
0%
1#
#815000
b11101 "
b10001 !
b10011 !
b11 !
1=
0:
04
13
1>
1;
10
11
1&
1%
#820000
b1011 !
b1010 !
b10101 "
b10111 "
b10011 "
b11 "
b1000 !
1<
09
06
03
0@
0=
17
0;
05
1A
12
0.
00
0%
0#
1'
#825000
b1100 !
b1011 "
b11011 "
16
13
1:
08
15
1;
10
1.
0/
0$
1#
1%
#830000
b11010 "
b11100 !
b11000 !
b10010 "
0:
14
0?
06
0;
05
0A
18
1/
02
0.
00
0%
0#
0'
1$
#835000
b10110 "
b11010 !
b110 "
b1010 !
b1110 "
1=
04
19
16
03
0>
1;
08
0/
10
01
0&
1%
0$
#840000
b1011 !
b1111 !
b1010 "
b1101 !
b11010 "
b10010 "
09
06
13
1@
0=
1:
18
15
1A
1>
11
12
1.
1/
1$
1#
1'
1&
#845000
b101 !
b10011 "
b10101 !
b10100 !
b10110 !
b11 "
b1011 "
1?
16
03
0@
1=
07
14
0>
01
0&
#850000
b10010 !
b1111 "
b11010 !
b1010 !
b11111 "
b10111 "
19
06
13
0:
17
04
#855000
b10110 "
b1000 !
b1100 !
b100 !
b10100 !
b110 "
b1110 "
0=
1:
07
14
0?
16
03
1>
0;
0A
02
00
11
1&
0%
0'
#860000
b1100 "
b10101 !
b1000 "
b1001 "
b11101 !
b1101 !
1@
17
04
1?
0<
09
08
05
0>
1;
10
01
0.
0/
0$
0#
0&
1%
#865000
b1001 !
b1 "
b101 "
b1 !
19
06
0:
07
#870000
b10101 "
b10111 "
b0 !
b10110 "
b10000 !
b10100 !
b11110 "
0@
1:
14
0?
1<
16
13
0;
1>
18
1/
11
00
0%
1&
1$
#875000
b10110 !
b11110 !
b1110 "
b11111 !
b1111 !
b1011 !
03
1@
1=
0:
17
04
1A
0>
1;
08
0/
10
01
12
1'
0&
1%
0$
#880000
b1010 "
b1000 "
b1001 "
b1 "
b10001 "
1?
0<
09
06
13
0A
1>
0;
18
15
1.
1/
00
11
02
0'
1&
0%
1$
1#
#885000
b11 !
b10011 !
b10101 "
b101 "
19
03
07
14
1;
08
0/
10
1%
0$
#890000
b111 "
b110 "
b1110 "
b1010 "
b11010 "
0?
1<
09
16
13
1A
0>
0;
18
05
0.
1/
00
01
12
1'
0&
0%
1$
0#
#895000
b10001 !
b11011 "
b10011 "
b11 "
1?
06
03
0=
0A
08
15
1>
11
1.
0/
02
0'
0$
1#
1&
#900000
b10000 !
b10100 !
b111 "
b10110 !
b1111 "
b11111 "
19
16
13
0@
1=
1:
18
05
1A
0>
01
12
0.
1/
1$
0#
1'
0&
#905000
b110 !
b11110 "
b10 !
b10110 "
0?
06
0:
04
0A
08
1;
15
1.
10
0/
02
0'
0$
1%
1#
#910000
b1010 !
b10100 "
b1011 !
b1001 !
b1101 !
b11100 "
0<
16
1@
0=
1:
17
1A
0;
00
12
1'
0%
#915000
b1100 "
b11101 !
b1101 "
b11100 !
b11110 !
b101 "
0@
1=
14
1?
06
03
1>
18
1/
11
1&
1$
#920000
b111 "
b11010 !
b1010 !
b1000 !
0=
0:
04
1<
1;
05
0.
10
1%
0#
#925000
b0 !
b10111 "
b10110 "
b1 !
b10100 "
b101 !
b10101 !
0?
0<
13
1@
1:
07
14
0>
0;
08
0/
00
01
0&
0%
0$
#930000
b10000 "
b11000 "
b1000 "
b1001 "
b10100 !
b10000 !
0@
0:
1?
09
16
03
18
15
1.
1/
1$
1#
#935000
b10010 !
b1101 "
b1100 "
b10110 !
0?
19
1=
1:
0A
1>
11
02
0'
1&
#940000
b11110 !
b1110 !
b100 "
b10100 "
b1111 !
b10000 "
b10001 "
b1011 !
1?
09
06
13
1@
0:
17
04
#945000
b10011 "
b11 "
b1010 !
b10 "
0@
0?
1<
03
0>
05
0.
01
0&
0#
#950000
b1000 !
b11000 !
b1010 "
b1110 "
b11100 !
b1100 "
b11100 "
b11101 !
b11101 "
1?
0<
19
16
13
1@
0=
1:
14
08
0/
0$
#955000
b10101 !
b10101 "
b10001 "
b10011 "
b11 "
b10100 !
1<
09
06
03
0@
07
1>
1;
15
1A
12
1.
10
11
1&
1%
1#
1'
#960000
b100 !
b10 "
0?
04
0A
05
0.
02
0'
0#
#965000
b110 !
b10 !
b1010 "
b11010 "
b10010 !
b11011 "
1?
16
13
1=
0:
14
1A
18
0>
0;
00
01
1/
12
1'
1$
0&
0%
#970000
b11111 "
b10011 !
b10001 !
b10101 !
b10111 "
b111 "
b110 "
1@
0=
1:
0?
19
06
03
1>
08
15
1.
0/
11
1&
0$
1#
#975000
b10100 !
b1110 "
b11110 "
16
13
0@
18
05
0A
02
0.
1/
1$
0#
0'
#980000
b11100 !
b11100 "
b1100 !
b11000 "
b1110 !
b11001 "
b1001 "
1?
0<
09
03
1=
17
04
1A
1;
08
0/
10
12
1'
1%
0$
#985000
b1 "
b11 "
b11110 !
b11100 !
b10011 "
0=
14
1<
06
13
18
1/
1$
#990000
b10010 "
b11010 "
b11000 "
0?
0<
16
0A
0>
08
0/
01
02
0'
0&
0$
#995000
b11000 !
b11100 "
b11010 !
b11101 "
b10101 "
1?
19
06
1=
0:
1A
18
1>
11
1/
12
1'
1$
1&
