adder/simulation/qsim/adder.msim.vcd
$comment
	File created using the following command:
		vcd file adder.msim.vcd -direction
$end
$date
	Sat Jan 28 10:11:13 2023
$end
$version
	ModelSim Version 2020.1
$end
$timescale
	1ps
$end

$scope module binary_to_bcd_vlg_vec_tst $end
$var reg 6 ! binary [5:0] $end
$var wire 1 " BCD [8] $end
$var wire 1 # BCD [7] $end
$var wire 1 $ BCD [6] $end
$var wire 1 % BCD [5] $end
$var wire 1 & BCD [4] $end
$var wire 1 ' BCD [3] $end
$var wire 1 ( BCD [2] $end
$var wire 1 ) BCD [1] $end
$var wire 1 * BCD [0] $end

$scope module i1 $end
$var wire 1 + gnd $end
$var wire 1 , vcc $end
$var wire 1 - unknown $end
$var tri1 1 . devclrn $end
$var tri1 1 / devpor $end
$var tri1 1 0 devoe $end
$var wire 1 1 BCD[8]~output_o $end
$var wire 1 2 BCD[7]~output_o $end
$var wire 1 3 BCD[6]~output_o $end
$var wire 1 4 BCD[5]~output_o $end
$var wire 1 5 BCD[4]~output_o $end
$var wire 1 6 BCD[3]~output_o $end
$var wire 1 7 BCD[2]~output_o $end
$var wire 1 8 BCD[1]~output_o $end
$var wire 1 9 BCD[0]~output_o $end
$var wire 1 : inst4~o $end
$var wire 1 ; binary[3]~input_o $end
$var wire 1 < binary[2]~input_o $end
$var wire 1 = binary[4]~input_o $end
$var wire 1 > inst|inst5~combout $end
$var wire 1 ? binary[1]~input_o $end
$var wire 1 @ inst3|inst5~combout $end
$var wire 1 A inst3|inst7~combout $end
$var wire 1 B inst3|inst8~0_combout $end
$var wire 1 C inst3|inst9~combout $end
$var wire 1 D inst1~o $end
$upscope $end
$upscope $end
$enddefinitions $end
#0
$dumpvars
b0 !
0*
0)
0(
0'
0&
0%
0$
0#
0"
0+
1,
x-
1.
1/
10
01
02
03
04
05
06
07
08
09
0:
0;
0<
0=
1>
0?
1@
1A
0B
1C
0D
$end
#5000
b1 !
1D
19
1*
#10000
b11 !
b10 !
1?
0D
09
0C
0*
18
1)
#15000
b11 !
1D
19
1*
#20000
b111 !
b101 !
b100 !
0?
1<
0D
09
1C
0*
1B
17
08
0)
1(
#25000
b101 !
1D
19
1*
#30000
b111 !
b110 !
1?
0D
09
0C
0*
18
1)
#35000
b111 !
1D
19
1*
#40000
b1111 !
b1011 !
b1001 !
b1000 !
0?
0<
1;
0D
09
1C
0A
0*
0B
07
16
08
0)
1'
0(
#45000
b1001 !
1D
19
1*
#50000
b1011 !
b1010 !
1?
0D
09
1A
0@
0*
15
06
0'
1&
#55000
b1011 !
1D
19
1*
#60000
b1111 !
b1101 !
b1100 !
0?
1<
0D
09
0C
0*
18
1)
#65000
b1101 !
1D
19
1*
#70000
b1111 !
b1110 !
1?
0D
09
1C
0*
1B
17
08
0)
1(
#75000
b1111 !
1D
19
1*
#80000
b11111 !
b10111 !
b10011 !
b10001 !
b10000 !
0?
0<
0;
1=
0D
09
0C
0*
18
1)
#85000
b10001 !
1D
19
1*
#90000
b10011 !
b10010 !
1?
0D
09
1C
0A
0*
0B
07
16
08
0)
1'
0(
#95000
b10011 !
1D
19
1*
#100000
b10111 !
b10101 !
b10100 !
0?
1<
0D
09
1A
1@
0>
0*
14
05
06
0'
0&
1%
#105000
b10101 !
1D
19
1*
#110000
b10111 !
b10110 !
1?
0D
09
0C
0*
18
1)
#115000
b10111 !
1D
19
1*
#120000
b11111 !
b11011 !
b11001 !
b11000 !
0?
0<
1;
0D
09
1C
0*
1B
17
08
0)
1(
#125000
b11001 !
1D
19
1*
#130000
b11011 !
b11010 !
1?
0D
09
0C
0*
18
1)
#135000
b11011 !
1D
19
1*
#140000
b11111 !
b11101 !
b11100 !
0?
1<
0D
09
1C
0A
0*
0B
07
16
08
0)
1'
0(
#145000
b11101 !
1D
19
1*
#150000
b11111 !
b11110 !
1?
0D
09
1A
0@
0*
15
06
0'
1&
#155000
b11111 !
1D
19
1*
#160000
b1111 !
b111 !
b11 !
b1 !
b0 !
0?
0<
0;
0=
0D
09
1@
1>
0*
04
05
0&
0%
#165000
b1 !
1D
19
1*
#170000
b11 !
b10 !
1?
0D
09
0C
0*
18
1)
#175000
b11 !
1D
19
1*
#180000
b111 !
b101 !
b100 !
0?
1<
0D
09
1C
0*
1B
17
08
0)
1(
#185000
b101 !
1D
19
1*
#190000
b111 !
b110 !
1?
0D
09
0C
0*
18
1)
#195000
b111 !
1D
19
1*
#200000
b1111 !
b1011 !
b1001 !
b1000 !
0?
0<
1;
0D
09
1C
0A
0*
0B
07
16
08
0)
1'
0(
#205000
b1001 !
1D
19
1*
#210000
b1011 !
b1010 !
1?
0D
09
1A
0@
0*
15
06
0'
1&
#215000
b1011 !
1D
19
1*
#220000
b1111 !
b1101 !
b1100 !
0?
1<
0D
09
0C
0*
18
1)
#225000
b1101 !
1D
19
1*
#230000
b1111 !
b1110 !
1?
0D
09
1C
0*
1B
17
08
0)
1(
#235000
b1111 !
1D
19
1*
#240000
b11111 !
b10111 !
b10011 !
b10001 !
b10000 !
0?
0<
0;
1=
0D
09
0C
0*
18
1)
#245000
b10001 !
1D
19
1*
#250000
b10011 !
b10010 !
1?
0D
09
1C
0A
0*
0B
07
16
08
0)
1'
0(
#255000
b10011 !
1D
19
1*
#260000
b10111 !
b10101 !
b10100 !
0?
1<
0D
09
1A
1@
0>
0*
14
05
06
0'
0&
1%
#265000
b10101 !
1D
19
1*
#270000
b10111 !
b10110 !
1?
0D
09
0C
0*
18
1)
#275000
b10111 !
1D
19
1*
#280000
b11111 !
b11011 !
b11001 !
b11000 !
0?
0<
1;
0D
09
1C
0*
1B
17
08
0)
1(
#285000
b11001 !
1D
19
1*
#290000
b11011 !
b11010 !
1?
0D
09
0C
0*
18
1)
#295000
b11011 !
1D
19
1*
#300000
b11111 !
b11101 !
b11100 !
0?
1<
0D
09
1C
0A
0*
0B
07
16
08
0)
1'
0(
#305000
b11101 !
1D
19
1*
#310000
b11111 !
b11110 !
1?
0D
09
1A
0@
0*
15
06
0'
1&
#315000
b11111 !
1D
19
1*
#320000
b1111 !
b111 !
b11 !
b1 !
b0 !
0?
0<
0;
0=
0D
09
1@
1>
0*
04
05
0&
0%
#325000
b1 !
1D
19
1*
#330000
b11 !
b10 !
1?
0D
09
0C
0*
18
1)
#335000
b11 !
1D
19
1*
#340000
b111 !
b101 !
b100 !
0?
1<
0D
09
1C
0*
1B
17
08
0)
1(
#345000
b101 !
1D
19
1*
#350000
b111 !
b110 !
1?
0D
09
0C
0*
18
1)
#355000
b111 !
1D
19
1*
#360000
b1111 !
b1011 !
b1001 !
b1000 !
0?
0<
1;
0D
09
1C
0A
0*
0B
07
16
08
0)
1'
0(
#365000
b1001 !
1D
19
1*
#370000
b1011 !
b1010 !
1?
0D
09
1A
0@
0*
15
06
0'
1&
#375000
b1011 !
1D
19
1*
#380000
b1111 !
b1101 !
b1100 !
0?
1<
0D
09
0C
0*
18
1)
#385000
b1101 !
1D
19
1*
#390000
b1111 !
b1110 !
1?
0D
09
1C
0*
1B
17
08
0)
1(
#395000
b1111 !
1D
19
1*
#400000
b11111 !
b10111 !
b10011 !
b10001 !
b10000 !
0?
0<
0;
1=
0D
09
0C
0*
18
1)
#405000
b10001 !
1D
19
1*
#410000
b10011 !
b10010 !
1?
0D
09
1C
0A
0*
0B
07
16
08
0)
1'
0(
#415000
b10011 !
1D
19
1*
#420000
b10111 !
b10101 !
b10100 !
0?
1<
0D
09
1A
1@
0>
0*
14
05
06
0'
0&
1%
#425000
b10101 !
1D
19
1*
#430000
b10111 !
b10110 !
1?
0D
09
0C
0*
18
1)
#435000
b10111 !
1D
19
1*
#440000
b11111 !
b11011 !
b11001 !
b11000 !
0?
0<
1;
0D
09
1C
0*
1B
17
08
0)
1(
#445000
b11001 !
1D
19
1*
#450000
b11011 !
b11010 !
1?
0D
09
0C
0*
18
1)
#455000
b11011 !
1D
19
1*
#460000
b11111 !
b11101 !
b11100 !
0?
1<
0D
09
1C
0A
0*
0B
07
16
08
0)
1'
0(
#465000
b11101 !
1D
19
1*
#470000
b11111 !
b11110 !
1?
0D
09
1A
0@
0*
15
06
0'
1&
#475000
b11111 !
1D
19
1*
#480000
b1111 !
b111 !
b11 !
b1 !
b0 !
0?
0<
0;
0=
0D
09
1@
1>
0*
04
05
0&
0%
#485000
b1 !
1D
19
1*
#490000
b11 !
b10 !
1?
0D
09
0C
0*
18
1)
#495000
b11 !
1D
19
1*
#500000
b111 !
b101 !
b100 !
0?
1<
0D
09
1C
0*
1B
17
08
0)
1(
#505000
b101 !
1D
19
1*
#510000
b111 !
b110 !
1?
0D
09
0C
0*
18
1)
#515000
b111 !
1D
19
1*
#520000
b1111 !
b1011 !
b1001 !
b1000 !
0?
0<
1;
0D
09
1C
0A
0*
0B
07
16
08
0)
1'
0(
#525000
b1001 !
1D
19
1*
#530000
b1011 !
b1010 !
1?
0D
09
1A
0@
0*
15
06
0'
1&
#535000
b1011 !
1D
19
1*
#540000
b1111 !
b1101 !
b1100 !
0?
1<
0D
09
0C
0*
18
1)
#545000
b1101 !
1D
19
1*
#550000
b1111 !
b1110 !
1?
0D
09
1C
0*
1B
17
08
0)
1(
#555000
b1111 !
1D
19
1*
#560000
b11111 !
b10111 !
b10011 !
b10001 !
b10000 !
0?
0<
0;
1=
0D
09
0C
0*
18
1)
#565000
b10001 !
1D
19
1*
#570000
b10011 !
b10010 !
1?
0D
09
1C
0A
0*
0B
07
16
08
0)
1'
0(
#575000
b10011 !
1D
19
1*
#580000
b10111 !
b10101 !
b10100 !
0?
1<
0D
09
1A
1@
0>
0*
14
05
06
0'
0&
1%
#585000
b10101 !
1D
19
1*
#590000
b10111 !
b10110 !
1?
0D
09
0C
0*
18
1)
#595000
b10111 !
1D
19
1*
#600000
b11111 !
b11011 !
b11001 !
b11000 !
0?
0<
1;
0D
09
1C
0*
1B
17
08
0)
1(
#605000
b11001 !
1D
19
1*
#610000
b11011 !
b11010 !
1?
0D
09
0C
0*
18
1)
#615000
b11011 !
1D
19
1*
#620000
b11111 !
b11101 !
b11100 !
0?
1<
0D
09
1C
0A
0*
0B
07
16
08
0)
1'
0(
#625000
b11101 !
1D
19
1*
#630000
b11111 !
b11110 !
1?
0D
09
1A
0@
0*
15
06
0'
1&
#635000
b11111 !
1D
19
1*
#640000
b1111 !
b111 !
b11 !
b1 !
b0 !
0?
0<
0;
0=
0D
09
1@
1>
0*
04
05
0&
0%
#645000
b1 !
1D
19
1*
#650000
b11 !
b10 !
1?
0D
09
0C
0*
18
1)
#655000
b11 !
1D
19
1*
#660000
b111 !
b101 !
b100 !
0?
1<
0D
09
1C
0*
1B
17
08
0)
1(
#665000
b101 !
1D
19
1*
#670000
b111 !
b110 !
1?
0D
09
0C
0*
18
1)
#675000
b111 !
1D
19
1*
#680000
b1111 !
b1011 !
b1001 !
b1000 !
0?
0<
1;
0D
09
1C
0A
0*
0B
07
16
08
0)
1'
0(
#685000
b1001 !
1D
19
1*
#690000
b1011 !
b1010 !
1?
0D
09
1A
0@
0*
15
06
0'
1&
#695000
b1011 !
1D
19
1*
#700000
b1111 !
b1101 !
b1100 !
0?
1<
0D
09
0C
0*
18
1)
#705000
b1101 !
1D
19
1*
#710000
b1111 !
b1110 !
1?
0D
09
1C
0*
1B
17
08
0)
1(
#715000
b1111 !
1D
19
1*
#720000
b11111 !
b10111 !
b10011 !
b10001 !
b10000 !
0?
0<
0;
1=
0D
09
0C
0*
18
1)
#725000
b10001 !
1D
19
1*
#730000
b10011 !
b10010 !
1?
0D
09
1C
0A
0*
0B
07
16
08
0)
1'
0(
#735000
b10011 !
1D
19
1*
#740000
b10111 !
b10101 !
b10100 !
0?
1<
0D
09
1A
1@
0>
0*
14
05
06
0'
0&
1%
#745000
b10101 !
1D
19
1*
#750000
b10111 !
b10110 !
1?
0D
09
0C
0*
18
1)
#755000
b10111 !
1D
19
1*
#760000
b11111 !
b11011 !
b11001 !
b11000 !
0?
0<
1;
0D
09
1C
0*
1B
17
08
0)
1(
#765000
b11001 !
1D
19
1*
#770000
b11011 !
b11010 !
1?
0D
09
0C
0*
18
1)
#775000
b11011 !
1D
19
1*
#780000
b11111 !
b11101 !
b11100 !
0?
1<
0D
09
1C
0A
0*
0B
07
16
08
0)
1'
0(
#785000
b11101 !
1D
19
1*
#790000
b11111 !
b11110 !
1?
0D
09
1A
0@
0*
15
06
0'
1&
#795000
b11111 !
1D
19
1*
#800000
b1111 !
b111 !
b11 !
b1 !
b0 !
0?
0<
0;
0=
0D
09
1@
1>
0*
04
05
0&
0%
#805000
b1 !
1D
19
1*
#810000
b11 !
b10 !
1?
0D
09
0C
0*
18
1)
#815000
b11 !
1D
19
1*
#820000
b111 !
b101 !
b100 !
0?
1<
0D
09
1C
0*
1B
17
08
0)
1(
#825000
b101 !
1D
19
1*
#830000
b111 !
b110 !
1?
0D
09
0C
0*
18
1)
#835000
b111 !
1D
19
1*
#840000
b1111 !
b1011 !
b1001 !
b1000 !
0?
0<
1;
0D
09
1C
0A
0*
0B
07
16
08
0)
1'
0(
#845000
b1001 !
1D
19
1*
#850000
b1011 !
b1010 !
1?
0D
09
1A
0@
0*
15
06
0'
1&
#855000
b1011 !
1D
19
1*
#860000
b1111 !
b1101 !
b1100 !
0?
1<
0D
09
0C
0*
18
1)
#865000
b1101 !
1D
19
1*
#870000
b1111 !
b1110 !
1?
0D
09
1C
0*
1B
17
08
0)
1(
#875000
b1111 !
1D
19
1*
#880000
b11111 !
b10111 !
b10011 !
b10001 !
b10000 !
0?
0<
0;
1=
0D
09
0C
0*
18
1)
#885000
b10001 !
1D
19
1*
#890000
b10011 !
b10010 !
1?
0D
09
1C
0A
0*
0B
07
16
08
0)
1'
0(
#895000
b10011 !
1D
19
1*
#900000
b10111 !
b10101 !
b10100 !
0?
1<
0D
09
1A
1@
0>
0*
14
05
06
0'
0&
1%
#905000
b10101 !
1D
19
1*
#910000
b10111 !
b10110 !
1?
0D
09
0C
0*
18
1)
#915000
b10111 !
1D
19
1*
#920000
b11111 !
b11011 !
b11001 !
b11000 !
0?
0<
1;
0D
09
1C
0*
1B
17
08
0)
1(
#925000
b11001 !
1D
19
1*
#930000
b11011 !
b11010 !
1?
0D
09
0C
0*
18
1)
#935000
b11011 !
1D
19
1*
#940000
b11111 !
b11101 !
b11100 !
0?
1<
0D
09
1C
0A
0*
0B
07
16
08
0)
1'
0(
#945000
b11101 !
1D
19
1*
#950000
b11111 !
b11110 !
1?
0D
09
1A
0@
0*
15
06
0'
1&
#955000
b11111 !
1D
19
1*
#960000
b1111 !
b111 !
b11 !
b1 !
b0 !
0?
0<
0;
0=
0D
09
1@
1>
0*
04
05
0&
0%
#965000
b1 !
1D
19
1*
#970000
b11 !
b10 !
1?
0D
09
0C
0*
18
1)
#975000
b11 !
1D
19
1*
#980000
b111 !
b101 !
b100 !
0?
1<
0D
09
1C
0*
1B
17
08
0)
1(
#985000
b101 !
1D
19
1*
#990000
b111 !
b110 !
1?
0D
09
0C
0*
18
1)
#995000
b111 !
1D
19
1*
