adder/simulation/qsim/adder.msim.vcd
$comment
	File created using the following command:
		vcd file adder.msim.vcd -direction
$end
$date
	Thu Jan 19 23:29:12 2023
$end
$version
	ModelSim Version 2020.1
$end
$timescale
	1ps
$end

$scope module circuit_subtrator_complete_vlg_vec_tst $end
$var reg 5 ! BitA [4:0] $end
$var reg 5 " BitB [4:0] $end
$var wire 1 # BitAns [5] $end
$var wire 1 $ BitAns [4] $end
$var wire 1 % BitAns [3] $end
$var wire 1 & BitAns [2] $end
$var wire 1 ' BitAns [1] $end
$var wire 1 ( BitAns [0] $end

$scope module i1 $end
$var wire 1 ) gnd $end
$var wire 1 * vcc $end
$var wire 1 + unknown $end
$var tri1 1 , devclrn $end
$var tri1 1 - devpor $end
$var tri1 1 . devoe $end
$var wire 1 / BitAns[5]~output_o $end
$var wire 1 0 BitAns[4]~output_o $end
$var wire 1 1 BitAns[3]~output_o $end
$var wire 1 2 BitAns[2]~output_o $end
$var wire 1 3 BitAns[1]~output_o $end
$var wire 1 4 BitAns[0]~output_o $end
$var wire 1 5 BitB[3]~input_o $end
$var wire 1 6 BitB[2]~input_o $end
$var wire 1 7 BitB[1]~input_o $end
$var wire 1 8 BitB[0]~input_o $end
$var wire 1 9 inst|inst13|inst3~combout $end
$var wire 1 : BitB[4]~input_o $end
$var wire 1 ; inst|inst12|inst3~combout $end
$var wire 1 < inst|inst11|inst3~combout $end
$var wire 1 = BitA[0]~input_o $end
$var wire 1 > BitA[1]~input_o $end
$var wire 1 ? inst3|inst1|inst4~0_combout $end
$var wire 1 @ BitA[2]~input_o $end
$var wire 1 A inst3|inst5|inst4~0_combout $end
$var wire 1 B BitA[3]~input_o $end
$var wire 1 C inst3|inst6|inst4~0_combout $end
$var wire 1 D BitA[4]~input_o $end
$var wire 1 E inst3|inst7|inst4~0_combout $end
$var wire 1 F inst3|inst7|inst1~combout $end
$var wire 1 G inst3|inst6|inst1~combout $end
$var wire 1 H inst3|inst5|inst1~combout $end
$var wire 1 I inst3|inst1|inst1~combout $end
$var wire 1 J inst3|inst|inst~combout $end
$upscope $end
$upscope $end
$enddefinitions $end
#0
$dumpvars
b11111 !
b11100 "
1(
1'
0&
0%
0$
1#
0)
1*
x+
1,
1-
1.
1/
00
01
02
13
14
15
16
07
08
19
1:
1;
0<
1=
1>
0?
1@
1A
1B
1C
1D
1E
0F
0G
0H
1I
1J
$end
#5000
b11011 !
b11001 !
b1100 "
b100 "
b101 "
18
05
0:
0>
0@
1?
1<
0A
0J
0I
1G
1F
1H
12
10
11
03
04
0(
0'
1%
1$
1&
0G
01
0%
#10000
b11000 !
b1 "
b11100 !
b11110 !
b10001 "
06
1:
0=
1>
1@
1A
0F
1J
14
00
0$
1(
1G
11
1%
#15000
b1110 !
b10011 "
b11011 "
b11010 "
b11110 "
b1100 !
b1110 "
08
17
16
15
0:
0>
0D
0?
0J
1I
0H
0G
01
02
13
04
0A
0(
1'
0&
0%
1H
12
0C
1&
1G
11
1%
1F
0E
0/
10
1$
0#
#20000
b100 !
b101 !
b10101 !
b10111 !
b11110 "
1:
1=
1>
0B
1D
1?
1J
0I
0G
01
03
14
1A
1(
0'
0%
0H
02
0&
1G
11
1%
#25000
b11100 "
b11000 "
b10110 !
b10100 !
b1000 "
0=
0>
07
06
0:
0?
0<
0;
0J
1H
0F
1E
1/
00
12
04
0A
1C
0(
1&
0$
1#
0G
01
0C
0%
1G
1F
10
11
1%
1$
0F
00
0$
#30000
b1010 "
b10110 !
1>
17
1?
1<
1;
1A
0G
01
0%
1G
11
1%
#35000
b10 "
b11 "
b11110 !
b1110 !
b111 "
b10111 "
1B
0D
18
16
05
1:
1C
0?
0E
1J
1I
0H
02
13
14
0/
0A
0#
1(
1'
0&
1F
1H
12
10
1$
1&
0G
01
0%
#40000
b1111 !
b10101 "
b11101 "
b11100 "
b11111 !
b11000 "
08
07
06
15
1=
1D
0<
0;
1A
0C
0H
1G
0F
1E
1/
00
11
02
0A
1C
0&
1%
0$
1#
1H
1F
0E
0/
10
12
1&
1$
0#
0G
0F
1E
1/
00
01
0%
0$
1#
#45000
b11011 !
b11001 !
b10001 !
b1000 "
b10000 !
b1010 "
b10 "
b11 "
b0 !
b111 "
18
17
16
05
0:
0=
0>
0@
0B
0D
1<
1;
0C
0I
03
0'
0H
1G
1F
0E
0/
10
11
02
0&
1%
1$
0#
#50000
b100 !
b101 !
b11 "
06
1=
1@
1A
0J
1I
13
04
1C
0(
1'
0G
01
0%
0F
1E
1/
00
0$
1#
#55000
b111 !
b1111 !
b10011 "
b10001 "
b10000 "
b11111 !
b11011 !
b10100 "
08
07
16
1:
1>
0@
1B
1D
0<
0A
1J
1G
11
14
1(
1%
1H
0G
01
12
1&
0%
#60000
b11010 !
b10010 !
b100 "
b10 !
0:
0=
0B
0D
0C
0J
1G
11
04
0(
1%
1F
0E
0/
10
1$
0#
#65000
b1100 "
b0 !
b1 !
b1001 !
b11001 !
1=
0>
1B
1D
15
1J
0I
0F
1E
1/
00
03
14
1(
0'
0$
1#
#70000
b1110 "
b11101 !
b110 "
b11100 !
b1100 !
0=
1@
0D
17
05
1A
1<
1C
0J
1I
0H
1F
0E
0G
01
0/
10
02
13
04
0A
0(
1'
0&
1$
0#
0%
1G
1H
0F
1E
1/
00
12
11
1%
1&
0$
1#
0G
01
0%
#75000
b111 "
b11 "
b100 !
b1 "
b101 !
1=
0B
18
07
06
1?
0C
1A
0I
1G
0H
02
11
03
1C
0'
1%
0&
1H
1F
0E
0G
01
0/
10
12
1&
1$
0#
0%
0F
1E
1/
00
0$
1#
#80000
b111 !
b11 !
b10011 !
b101 "
b11011 !
b11010 !
16
0=
1>
0@
1B
1D
0A
1J
1G
1F
10
11
14
1(
1%
1$
0G
01
0%
#85000
b100 "
b11000 !
b11100 !
b1100 !
0>
1@
0D
08
0?
1A
0<
0H
0F
0J
04
00
02
0&
0$
0(
1G
11
1%
#90000
b110 "
b10 "
b1000 !
b11000 !
0@
1D
17
06
0A
1<
1F
1I
13
10
1$
1'
0G
1H
12
01
0%
1&
#95000
b1010 "
b10000 !
b10001 !
b10011 !
b1000 "
b1100 "
b11 !
1=
1>
0B
0D
07
16
15
0C
0<
1J
0F
0H
02
00
14
1(
0$
0&
1F
0E
1H
12
0/
10
1$
0#
1&
#100000
b100 "
b1 !
b110 "
b10001 !
0>
1D
17
05
1<
0F
1E
1G
11
1/
00
0$
1#
1%
0H
02
0&
#105000
b11001 !
1B
1C
0G
01
0%
1F
10
1$
#110000
b10110 "
b11101 !
b10010 "
b10000 "
b1101 !
1@
0D
07
06
1:
1A
0<
0;
09
0E
0I
03
0/
0A
0#
0'
1H
0F
1E
1/
00
12
0C
1&
0$
1#
1G
11
1%
1F
0E
0/
10
1$
0#
#115000
b11000 "
b1000 "
b1100 "
b1110 "
b11101 !
1D
17
16
15
0:
1<
1;
19
1A
1C
1I
0H
0G
01
02
13
0A
1'
0&
0%
1H
1E
1/
12
0C
1&
1#
1G
11
1%
0F
00
0$
#120000
b1111 "
b11100 !
b11000 !
b1011 "
0=
0@
18
06
0I
03
0'
#125000
b11010 !
b10010 !
b11011 "
b11010 "
b10011 !
b11110 "
08
16
1:
1=
1>
0B
1?
0H
1F
0E
0G
01
0/
10
02
0&
1$
0#
0%
1H
12
1&
#130000
b10111 !
b10110 !
b11010 "
06
0=
1@
1A
0J
04
0(
1G
11
1%
#135000
b110 !
b11011 "
b111 !
b11111 "
18
16
1=
0D
0H
0F
00
02
0&
0$
#140000
b10111 "
b10101 "
b1111 !
b11111 !
b10100 "
b11110 !
0=
1B
1D
08
07
05
0?
1C
0<
1I
1F
10
13
1'
1$
0F
1E
1/
00
0$
1#
#145000
b100 "
b0 "
b1 "
b11111 !
1=
18
06
0:
1?
1<
0A
1H
1F
10
12
1A
1&
1$
0G
01
0%
1G
11
1%
#150000
b11011 !
b11 "
b10011 !
b11 !
b10 !
17
0=
0@
0B
0D
0?
1J
0H
0G
0F
00
01
02
14
0A
1(
0&
0%
0$
1H
12
0C
1&
1G
11
1%
1F
0E
0/
10
1$
0#
#155000
b0 !
b10 "
b100 !
b10100 !
08
0>
1@
1D
1A
0J
0H
0F
1E
1/
00
02
04
1C
0(
0&
0$
1#
0G
01
0%
1F
10
1$
#160000
b10010 "
b10110 !
b10011 "
b110 !
1>
0D
18
1:
0E
1J
14
0/
0#
1(
#165000
b11011 "
b11111 "
b11101 "
b111 !
b11 !
b1 !
b10001 !
1=
0>
0@
1D
07
16
15
1?
0A
0C
0J
0I
0F
1E
1G
11
1/
00
03
04
0(
0'
0$
1#
1%
1H
0G
1F
0E
0/
10
01
12
1&
0%
1$
0#
#170000
b1101 "
b1001 "
b10011 !
1>
06
0:
1A
1I
0H
0F
1E
1/
00
02
13
1'
0&
0$
1#
1G
11
1%
#175000
b11011 !
b11010 !
b1010 !
0=
1B
0D
1C
1J
0I
0G
1F
0E
0/
10
01
03
14
1(
0'
0%
1$
0#
0F
1E
1/
00
0$
1#
#180000
b1011 "
b11011 "
b10 !
0B
17
1:
0C
0?
1G
1I
1F
0E
0/
10
13
11
0A
1%
1'
1$
0#
0F
1H
12
00
0$
1&
0G
01
0%
#185000
b11010 "
b11110 "
b0 !
b1 !
b10001 !
b11100 "
1=
0>
1D
08
07
16
0<
0I
1F
0H
02
10
03
0'
1$
0&
1H
12
1&
#190000
b10100 "
b100 "
b11001 !
b101 "
b1 "
b11011 !
b11010 !
b11 "
0=
1>
1B
18
17
06
05
0:
1C
1<
1I
0H
0F
1E
1/
00
02
13
1'
0&
0$
1#
1F
1H
12
10
1$
1&
#195000
b11110 !
b1110 !
b10011 "
b110 !
b100 !
b101 !
1:
1=
0>
1@
0B
0D
1A
0C
0E
0J
0H
1G
11
02
04
0/
1C
0#
0(
0&
1%
0G
0F
00
01
0%
0$
1F
10
1$
#200000
b10010 "
b10000 "
b1 !
b10001 !
b11001 !
b11000 !
0=
0@
1B
1D
08
07
0A
0<
0;
09
0I
1H
1G
0F
1E
1/
00
11
12
03
0C
0'
1&
1%
0$
1#
0H
1F
10
02
0&
1$
0F
00
0$
#205000
b0 "
b1 "
b11 "
b11100 !
b1100 !
b100 !
b101 !
1=
1@
0B
0D
18
17
0:
1<
1;
19
1I
1H
0G
0E
0/
01
12
13
1A
1'
1&
0%
0#
0H
1G
1F
10
11
02
1C
0&
1%
1$
0G
01
0%
0F
1E
1/
00
0$
1#
#210000
b111 "
b111 !
b110 "
b110 !
0=
1>
08
16
1?
0A
0I
1H
12
03
1A
0C
0'
1&
0H
1G
11
02
1C
0&
1%
0G
1F
0E
0/
10
01
0%
1$
0#
0F
1E
1/
00
0$
1#
#215000
b1110 "
b11110 "
b11100 "
b10110 !
b10100 !
b11101 "
b10101 !
1=
0>
1D
18
07
15
1:
0C
1G
11
1%
1F
0E
0/
10
1$
0#
#220000
b11001 "
b10001 "
b101 !
b10000 "
0D
08
06
05
0?
0<
0;
09
1C
0F
1J
1H
0G
01
12
14
00
0A
0C
0$
1(
1&
0%
1G
1E
1/
11
1%
1#
0G
1F
0E
0/
10
01
0%
1$
0#
#225000
b1101 !
b0 "
b11101 !
b1 "
18
0:
1B
1D
1?
1<
1;
19
0J
1G
11
04
1A
1C
0(
1%
0G
0F
1E
1/
00
01
0%
0$
1#
1G
1F
10
11
1%
1$
#230000
b11111 !
b0 "
08
1>
0?
0<
0;
09
1J
1I
13
14
0A
1(
1'
0G
0F
00
01
0C
0%
0$
1G
11
1%
1F
0E
0/
10
1$
0#
#235000
b10 "
b11110 !
b110 "
b10110 !
b10100 !
0=
0>
0B
17
16
1<
1;
19
1A
0J
0G
0H
02
01
04
0A
1C
0(
0%
0&
1H
0F
1E
1/
00
12
0C
1&
0$
1#
1G
1F
10
11
1%
1$
0F
00
0$
#240000
b10110 "
b10100 "
b10000 "
07
06
1:
0<
0;
09
1A
0I
0H
1F
0E
0/
10
02
03
0A
0'
0&
1$
0#
1H
0F
1E
1/
00
12
1&
0$
1#
0G
01
0%
#245000
b10000 !
b11000 "
b11001 "
b10001 !
b11001 !
b1001 "
b1011 "
18
17
15
0:
1=
0@
1B
1<
1;
19
1C
1I
1F
0E
0H
02
0/
10
13
0C
1'
1$
0#
0&
1H
1G
1E
1/
11
12
1&
1%
1#
0F
00
0$
#250000
b1001 !
b1011 !
b1111 "
b1110 "
b1010 !
b10 !
b1100 "
08
07
16
0=
1>
0B
0D
0<
0H
0G
1F
0E
0/
10
01
02
0&
0%
1$
0#
1H
12
1&
#255000
b10010 !
b1000 "
b1001 "
b10011 !
18
06
1=
1D
1?
1<
0H
0F
1E
1/
00
02
1A
0&
0$
1#
1G
11
1%
#260000
b1 "
b10001 "
b10001 !
b10101 "
b10100 "
0>
08
16
05
1:
0?
0<
0A
1C
0I
1J
1H
0G
1F
0E
0/
10
01
12
14
03
0C
0'
1(
1&
0%
1$
0#
1G
0F
1E
1/
00
11
1%
0$
1#
1F
0E
0/
10
1$
0#
#265000
b10101 !
b11101 !
b11100 "
b11111 !
b11000 "
06
15
1>
1@
1B
0;
1I
13
1C
1'
0G
01
0%
0F
1E
1/
00
0$
1#
#270000
b11010 "
b11110 !
b1010 "
b1011 "
b11010 !
b10010 !
b11 "
b10000 !
b111 "
0=
0>
0@
0B
18
17
16
05
0:
0C
1<
1;
0I
1F
10
03
0'
1$
0F
0H
1G
11
02
00
0$
0&
1%
#275000
b10001 !
b110 "
b10101 !
b1110 "
b1010 "
08
06
15
1=
1@
1A
1I
0G
01
13
1'
0%
1G
11
1%
#280000
b101 !
b1000 "
b11000 "
b1101 !
b1111 !
b11001 "
b1011 !
b11101 "
18
07
16
1:
1>
0@
1B
0D
1?
0A
1C
0J
0E
0G
01
0/
04
0C
0(
0#
0%
1H
1G
1F
10
11
12
1&
1%
1$
0F
00
0$
#285000
b10101 "
b101 "
b11 !
b100 "
b111 !
b0 "
1@
0B
08
06
05
0:
1A
0?
0<
0;
09
1J
1F
10
14
0A
1(
1$
0F
00
0$
0G
01
0%
#290000
b10111 !
b10 "
b10010 "
b11111 !
b10011 "
18
17
1:
1B
1D
1?
1<
1;
19
0J
0I
1E
1G
11
1/
03
04
1A
1C
0(
0'
1#
1%
0G
1F
0E
0/
10
01
0%
1$
0#
1G
0F
1E
1/
00
11
1%
0$
1#
#295000
b11011 "
b11111 "
b11101 "
b1101 "
b1100 "
08
07
16
15
0:
0?
0<
1J
1I
0H
0G
1F
10
01
02
13
14
1(
1'
0&
0%
1$
#300000
b11110 !
b11010 !
b1010 !
b10 !
b100 "
b0 "
b10000 "
06
05
1:
0=
0@
0B
0D
0A
0;
09
0E
0J
04
0/
0C
0#
0(
0F
1E
1/
00
0$
1#
1F
0E
0/
10
1$
0#
#305000
b0 !
b10001 "
b10000 !
b11000 !
18
0>
1B
1D
1<
1;
19
1J
1G
0F
1E
1/
00
11
14
1C
1(
1%
0$
1#
1H
0G
1F
0E
0/
10
01
12
1&
0%
1$
0#
0F
1E
1/
00
0$
1#
#310000
b10011 "
b11100 !
b11011 "
b11111 "
b11110 !
1>
1@
17
16
15
0C
1G
11
1%
1F
0E
0/
10
1$
0#
#315000
b1111 "
b1110 !
b110 !
b10 !
b0 !
0>
0@
0B
0D
0:
0I
0H
0G
01
02
03
0'
0&
0%
#320000
b1 !
b111 "
b11 "
b10011 "
b1001 !
b1011 !
06
05
1:
1=
1>
1B
1C
1?
1H
0F
0J
04
00
12
1A
1&
0$
0(
1F
0H
02
10
1$
0&
1G
11
1%
#325000
b10010 "
b1111 !
b111 !
1@
0B
08
1H
0G
1J
14
01
12
1&
0%
1(
#330000
b10000 "
b11000 "
b1000 "
b101 !
b1101 !
0>
1B
07
15
0:
0?
0<
0;
0F
1E
1/
00
0A
0$
1#
1G
11
1%
0G
01
0%
#335000
b1100 "
b1001 !
b100 "
b10100 "
0@
16
05
1:
1;
0C
1G
1F
0E
0/
10
11
1C
1%
1$
0#
0G
0F
00
01
0%
0$
1F
10
1$
#340000
b11001 !
b11000 !
b10101 "
b11100 !
b11101 "
b1101 "
18
15
0:
0=
1@
1D
1<
0C
1A
1I
1G
1E
0H
02
1/
11
13
0A
1C
1'
1%
1#
0&
1H
0F
0G
01
00
12
0C
1&
0$
0%
1G
1F
10
11
1%
1$
0F
00
0$
#345000
b1111 "
b11110 !
b1110 !
b1110 "
b1010 !
1>
0@
0D
08
17
1?
0I
0H
1F
0E
0J
04
0/
10
02
03
0'
0&
1$
0#
0(
1H
12
1&
#350000
b10 !
b1010 "
b1000 "
b10010 !
b1001 "
18
07
06
0B
1D
1A
1J
0H
0G
0F
1E
1/
00
01
02
14
1(
0&
0%
0$
1#
1G
11
1%
#355000
b10011 !
b1 "
b10001 "
b10111 !
b10101 "
b10111 "
b111 !
b10110 "
08
17
16
05
1:
1=
1@
0D
1C
0G
0E
0/
01
0%
0#
1F
10
1$
#360000
b101 !
b1101 !
b1100 !
b11110 "
b1000 !
b11010 "
b11000 "
b11000 !
07
06
15
0=
0>
0@
1B
1D
0?
0<
0;
0J
0F
1E
1/
00
04
0A
0(
0$
1#
1G
11
1%
0G
01
0%
#365000
b11010 !
b10010 !
b10110 !
b11100 "
b11110 "
17
16
1>
1@
0B
1?
1<
1;
1A
0C
1G
11
1%
1F
0E
0/
10
1$
0#
#370000
b10110 "
b10100 !
b11100 !
0>
1B
05
0?
1C
1I
13
0A
1'
1H
0F
1E
1/
00
12
1&
0$
1#
0G
01
0%
#375000
b10010 "
b10000 "
b11110 !
b10110 !
1>
0B
07
06
0C
0<
0;
09
1A
1G
0H
02
11
0A
1%
0&
1H
12
1&
0G
01
0%
#380000
b0 "
b1 "
b10111 !
b111 !
b11 !
b101 "
b111 "
b1 !
b1001 !
1=
0>
0@
1B
0D
18
17
16
0:
1<
1;
19
1G
0E
0/
11
1C
1%
0#
0H
0G
1F
10
01
02
0&
0%
1$
0F
1E
1/
00
0$
1#
#385000
b10111 "
b1000 !
b11000 !
b11100 !
b10101 "
b10100 !
0=
1@
0B
1D
07
1:
0C
1J
1H
1G
11
12
14
1(
1&
1%
1F
0E
0/
10
1$
0#
#390000
b10100 "
b10000 "
b10110 !
b10111 !
b10011 !
b10010 "
1=
1>
0@
08
17
06
1?
0I
03
1A
0'
0H
02
1C
0&
0G
01
0%
0F
1E
1/
00
0$
1#
#395000
b11011 !
b10110 "
b11001 !
b11000 !
16
0=
0>
1B
0A
0?
1H
0J
1I
1G
11
13
04
12
1&
0(
1'
1%
0G
0H
02
01
0%
0&
#400000
b110 "
b111 "
b10000 !
b11 "
b10001 !
1=
0B
18
06
0:
0C
1G
1H
1F
10
12
11
1%
1&
1$
0F
00
0$
#405000
b1 !
b1 "
b11 !
07
1>
0D
1?
1F
0E
0/
10
1A
1$
0#
0H
02
1C
0&
0G
01
0%
0F
1E
1/
00
0$
1#
#410000
b10001 "
b10000 "
b1011 !
b10100 "
b1001 !
0>
1B
08
16
1:
0?
0<
0A
0I
1G
1J
1H
1F
0E
0/
10
12
14
11
03
0'
1%
1(
1&
1$
0#
0G
01
0%
#415000
b11100 "
b1000 !
b11000 !
b1100 "
b1101 "
b10000 !
0=
0B
1D
18
15
0:
0C
1<
1I
1E
1/
13
1'
1#
0F
0H
02
00
0$
0&
#420000
b10100 !
b1001 "
b10110 !
b10111 !
b11001 "
b11111 !
06
1:
1=
1>
1@
1B
1A
1?
1F
0E
0J
1G
11
04
0/
10
1C
1$
0#
0(
1%
0G
1H
12
01
0%
1&
0F
1E
1/
00
0$
1#
#425000
b10001 "
b1111 !
b1011 !
b1010 !
b1 "
b10 !
0=
0@
0B
0D
05
0:
1J
0I
0H
02
03
14
1(
0'
0&
#430000
b11 "
b0 !
b1011 "
b100 !
b101 !
b11011 "
b1101 !
1=
0>
1@
1B
17
15
1:
0?
0J
1I
1H
1F
0E
0/
10
12
13
04
0(
1'
1&
1$
0#
0H
02
0&
#435000
b11010 "
b11000 "
b1001 !
b1000 "
0@
08
07
0:
0A
0<
0;
1H
1J
0I
0F
1E
1/
00
03
14
12
1&
1(
0'
0$
1#
0H
02
0&
#440000
b1100 "
b11001 !
b11000 !
b1110 "
b11110 "
0=
1D
17
16
1:
1<
1;
0J
1I
1H
12
13
04
0C
0(
1'
1&
0H
1G
11
02
0&
1%
1F
0E
0/
10
1$
0#
#445000
b10000 !
b11111 "
b10001 !
b11101 "
18
07
1=
0B
1?
0I
0G
01
03
0'
0%
1H
12
1&
#450000
b10011 !
b10101 "
b10111 !
b10001 "
b111 !
b1 "
b1111 !
b0 "
08
06
05
0:
1>
1@
1B
0D
0?
0<
0;
09
1A
1C
1J
1I
13
14
0A
1(
1'
0C
1G
11
1%
0F
00
0$
#455000
b10 "
b1101 !
b1001 !
b110 "
b1 !
0>
0@
0B
17
16
1<
1;
19
0G
01
0%
0H
1G
1F
10
11
02
0&
1%
1$
#460000
b0 !
b1110 "
b11110 "
b11111 "
b11101 "
b100 !
b1100 !
18
07
15
1:
0=
1@
1B
0F
1H
12
00
0$
1&
#465000
b1110 !
b11001 "
b1111 !
b10001 "
b10000 "
b10010 "
08
17
06
05
1=
1>
1?
1A
1C
0I
0H
0G
01
02
03
0'
0&
0%
1H
1G
1F
10
11
12
1&
1%
1$
#470000
b11111 !
b11010 "
b11011 "
b11001 "
18
07
15
1D
0J
1I
0G
0F
1E
1/
00
01
13
04
0(
1'
0%
0$
1#
#475000
b11011 !
b11001 !
b1001 !
b10001 "
b10000 "
08
05
0>
0@
0D
0?
0<
0;
09
1J
0I
1G
0H
1F
0E
0/
10
02
11
03
14
0A
1(
0'
1%
0&
1$
0#
0G
0F
1E
1/
00
01
0C
0%
0$
1#
1G
11
1%
1F
0E
0/
10
1$
0#
#480000
b0 "
b1 !
b0 !
b10 !
b10010 !
0=
1>
0B
1D
0:
0J
1I
0G
01
13
04
0(
1'
0%
#485000
b10110 !
b1000 "
b1001 "
b11110 !
b11111 !
b1111 !
18
15
1=
1@
1B
0D
1?
1<
1;
19
1C
1H
0F
00
12
1A
0C
1&
0$
1G
1E
1/
11
1C
1%
1#
0G
1F
0E
0/
10
01
0%
1$
0#
0F
1E
1/
00
0$
1#
#490000
b1101 "
b1111 "
b1011 !
b111 "
b110 "
b11 !
b10011 !
0@
0B
1D
08
17
16
05
0A
1F
1J
0I
03
14
10
0C
1$
1(
0'
1G
11
1%
0F
00
0$
#495000
b10110 "
b10010 !
b10110 !
b10111 "
b11110 !
b1110 !
0=
1@
1B
0D
18
1:
0?
1A
1C
1I
0H
0G
0E
0/
01
02
13
0A
1'
0&
0%
0#
1H
1G
1F
10
11
12
1&
1%
1$
0G
01
0%
#500000
b1100 !
b1101 !
b101 !
1=
0>
0B
0C
0J
1G
11
04
0(
1%
0F
00
0$
#505000
b10101 "
b11101 "
b1101 "
b1 !
b10001 !
b10011 !
b10010 !
b11010 !
0=
1>
0@
1B
1D
07
15
0:
1?
1J
0I
0H
1E
1/
02
03
14
1(
0'
0&
1#
1H
12
1&
#510000
b1001 "
b11001 "
b11110 !
b11111 !
1=
1@
06
1:
1A
0J
1I
1F
0E
0/
10
13
04
1C
0(
1'
1$
0#
0G
01
0%
0F
1E
1/
00
0$
1#
#515000
b10001 "
b11101 !
b10101 !
b10101 "
b10100 !
0=
0>
0B
16
05
0?
1J
0H
02
14
0A
1(
0&
1H
12
0C
1&
1G
11
1%
1F
0E
0/
10
1$
0#
#520000
b10100 "
b100 !
b100 "
b0 !
b1100 "
b10 !
b1010 !
1>
0@
1B
0D
08
15
0:
0<
0H
0J
04
02
0&
0(
1H
12
1&
#525000
b1000 "
b1001 "
b11010 !
b11001 "
b11000 !
0>
1D
18
06
1:
1<
1J
0H
02
14
1(
0&
1H
12
1&
#530000
b11011 "
b11100 !
b10011 "
b1100 !
b11 "
b1110 !
1>
1@
0D
17
05
0:
1A
1C
0H
0G
01
02
0&
0%
1G
0F
1E
1/
00
11
1%
0$
1#
#535000
b1 "
b1001 "
b11110 !
b11100 !
0>
1D
07
15
1F
0G
01
10
1$
0%
#540000
b11101 !
b1000 "
b11001 !
b1010 "
b10 "
b1001 !
08
17
05
1=
0@
0D
0A
1G
1H
0F
00
12
11
1%
1&
0$
0G
01
0%
#545000
b1000 !
b11 "
18
0=
0I
03
0'
#550000
b111 "
b10111 "
b1010 !
b1110 !
b11111 "
b11110 !
b11111 !
b11110 "
1=
1>
1@
1D
08
16
15
1:
1?
0C
1G
11
1A
1%
0H
1F
0E
0/
10
02
1C
0&
1$
0#
0G
01
0%
0F
1E
1/
00
0$
1#
#555000
b11100 "
b11000 "
b1000 "
b11101 !
b11001 !
b0 "
b1001 !
b1000 !
0=
0>
0@
0D
07
06
05
0:
0?
0<
0;
09
0J
1G
11
04
0A
0(
1%
0G
1F
0E
0/
10
01
0C
0%
1$
0#
1G
11
1%
0F
00
0$
#560000
b0 !
b10 "
b110 "
b10110 "
b10 !
b110 !
b11110 "
b10110 !
b10111 !
17
16
15
1:
1=
1>
1@
0B
1D
1?
1<
1;
19
1A
1E
1J
14
1/
1#
1(
1F
0E
0/
10
1$
0#
#565000
b11111 "
b11011 "
b1011 "
b10101 !
b10001 !
b11 "
b1 !
0>
0@
0D
18
06
05
0:
0?
1C
1I
0J
0G
01
04
13
0A
1'
0(
0%
1H
0F
1E
1/
00
12
0C
1&
0$
1#
1G
11
1%
1F
0E
0/
10
1$
0#
#570000
b1001 !
b1 "
b0 "
b100 "
b10100 "
b1011 !
b1111 !
b11100 "
08
07
16
15
1:
1>
1@
1B
0<
1J
0F
00
14
1A
1(
0$
0H
02
1C
0&
0G
01
0%
1F
10
1$
#575000
b1110 !
b11110 !
b10110 !
b11000 "
b1000 "
b0 "
06
05
0:
0=
0B
1D
0A
0;
09
1H
1E
0J
04
1/
12
0C
1&
1#
0(
0F
00
0$
1F
0E
0/
10
1$
0#
#580000
b10 "
17
1?
1<
1;
19
0I
03
1A
0'
1G
0F
1E
1/
00
11
1C
1%
0$
1#
0G
01
0%
1F
10
1$
#585000
b110 !
b110 "
b100 "
07
16
0D
0?
0<
1I
0H
0F
00
02
13
1'
0&
0$
#590000
b111 !
b1111 !
1=
1B
1J
1G
11
14
1(
1%
#595000
b1101 !
b1001 !
b10100 "
b11100 "
15
1:
0>
0@
0A
0G
1F
0E
0I
1H
12
03
0/
10
01
0C
0%
1$
0#
0'
1&
1G
11
1%
0F
00
0$
#600000
b11101 "
b11111 "
b1011 !
b10111 "
1>
18
17
05
1?
1<
1C
0J
0G
01
04
0(
0%
1F
10
1$
#605000
b10011 "
b11 !
b11 "
b1 "
b1 !
0>
0B
07
06
0:
0C
1A
1G
0H
0F
1E
1/
00
02
11
1C
1%
0&
0$
1#
1F
0E
0G
01
0/
10
1$
0#
0%
0F
1E
1/
00
0$
1#
#610000
b10001 !
b11001 !
b11 "
17
1B
1D
0?
1I
1G
1F
10
11
13
0A
1'
1%
1$
1H
12
1&
0G
01
0%
#615000
b11000 !
b10 "
b1010 "
b1110 "
b1000 !
b1100 "
08
07
16
15
0=
0D
0<
0C
0I
0H
1G
0F
00
11
02
03
0'
0&
1%
0$
1H
1F
0E
0/
10
12
1&
1$
0#
#620000
b11100 "
b1010 !
b10100 "
b10110 "
1>
17
05
1:
1?
1<
1C
0G
0F
00
01
0%
0$
1F
10
1$
#625000
b1011 !
b10010 "
b10 "
b1001 !
b1010 "
b1000 "
07
06
15
0:
1=
0>
0?
0<
0;
1A
0C
0H
1G
0F
1E
1J
14
1/
00
11
02
0A
1C
0&
1%
0$
1#
1(
1F
0E
0/
10
1$
0#
0G
0F
1E
1/
00
01
0%
0$
1#
#630000
b1101 !
b101 !
b1001 "
b10101 !
b10100 !
b1101 "
b101 "
18
16
05
0=
1@
0B
1D
1<
1;
1A
0C
1I
1F
10
13
0A
1C
1'
1$
1H
0F
00
12
0C
1&
0$
1G
1F
10
11
1%
1$
0F
00
0$
#635000
b10110 !
b111 "
b11110 !
b110 "
b11111 !
b10 "
08
17
06
1=
1>
1B
1?
1A
1C
0I
0H
0G
01
02
03
0'
0&
0%
1H
1G
1F
10
11
12
1&
1%
1$
#640000
b11011 !
b1010 "
b10011 !
b1110 "
16
15
0@
0B
0A
0C
0G
0F
00
01
0%
0$
#645000
b10001 !
b1100 "
b10000 !
b1000 "
07
06
0=
0>
0?
0<
0;
1A
0H
0J
04
02
0A
1C
0&
0(
0C
1G
1F
10
11
1%
1$
0F
00
0$
#650000
b11000 "
b11001 "
b10001 "
b11000 !
b10011 "
b11001 !
b10111 "
1=
1B
18
17
16
05
1:
1<
1;
1I
1H
1F
0E
0/
10
12
13
1C
1'
1&
1$
0#
0H
0G
01
02
0&
0%
0F
1E
1/
00
0$
1#
#655000
b11101 !
b111 "
b110 "
b11100 !
b10 "
08
06
0:
0=
1@
1A
1F
10
1$
1G
11
1%
#660000
b11110 !
b1010 "
b10110 !
b10010 !
b11010 "
b11110 "
16
15
1:
1>
0@
0B
0A
0C
1?
0F
0I
03
00
0$
0'
0G
1F
0E
1H
12
0/
10
01
0%
1$
0#
1&
#665000
b10 !
b11111 "
b11 !
b1 !
b1001 !
b1101 !
b11011 "
18
06
1=
0>
1@
1B
0D
0?
1A
1I
1G
0F
00
11
13
1C
1'
1%
0$
0H
0G
01
02
0&
0%
1F
10
1$
#670000
b11001 "
b10001 "
b11101 !
b11100 !
b11000 !
0=
0@
1D
07
05
0A
1J
1H
0F
1E
1G
11
1/
00
12
14
1(
1&
0$
1#
1%
0G
01
0%
#675000
b1 "
b0 "
b11010 !
b100 "
b1010 !
1>
0D
08
16
0:
0<
0J
0H
02
04
0(
0&
1H
12
1&
#680000
b10 !
b1100 "
b1101 "
b0 !
18
15
0>
0B
1<
0C
1J
14
1(
0H
1F
0E
0/
10
02
0&
1$
0#
