adder/simulation/qsim/adder.msim.vcd
$comment
	File created using the following command:
		vcd file adder.msim.vcd -direction
$end
$date
	Sun Feb  5 10:14:32 2023
$end
$version
	ModelSim Version 2020.1
$end
$timescale
	1ps
$end

$scope module fivebitstosixbits_vlg_vec_tst $end
$var reg 5 ! vector_fivebits [4:0] $end
$var wire 1 " vector_sixbits [5] $end
$var wire 1 # vector_sixbits [4] $end
$var wire 1 $ vector_sixbits [3] $end
$var wire 1 % vector_sixbits [2] $end
$var wire 1 & vector_sixbits [1] $end
$var wire 1 ' vector_sixbits [0] $end

$scope module i1 $end
$var wire 1 ( gnd $end
$var wire 1 ) vcc $end
$var wire 1 * unknown $end
$var tri1 1 + devclrn $end
$var tri1 1 , devpor $end
$var tri1 1 - devoe $end
$var wire 1 . vector_sixbits[5]~output_o $end
$var wire 1 / vector_sixbits[4]~output_o $end
$var wire 1 0 vector_sixbits[3]~output_o $end
$var wire 1 1 vector_sixbits[2]~output_o $end
$var wire 1 2 vector_sixbits[1]~output_o $end
$var wire 1 3 vector_sixbits[0]~output_o $end
$var wire 1 4 vector_fivebits[4]~input_o $end
$var wire 1 5 vector_fivebits[3]~input_o $end
$var wire 1 6 vector_fivebits[2]~input_o $end
$var wire 1 7 vector_fivebits[1]~input_o $end
$var wire 1 8 vector_fivebits[0]~input_o $end
$upscope $end
$upscope $end
$enddefinitions $end
#0
$dumpvars
b101 !
1'
0&
1%
0$
0#
0"
0(
1)
x*
1+
1,
1-
0.
0/
00
11
02
13
04
05
16
07
18
$end
#5000
b10101 !
b10111 !
17
14
1/
12
1&
1#
#10000
b11111 !
b1111 !
15
04
0/
10
1$
0#
#15000
b111 !
05
00
0$
#20000
b11 !
b1 !
07
06
01
02
0&
0%
#25000
b0 !
b10 !
08
17
12
03
0'
1&
#30000
b10010 !
b11010 !
b11011 !
18
15
14
1/
10
13
1'
1$
1#
#35000
b11111 !
b11101 !
b11100 !
08
07
16
11
02
03
0'
0&
1%
#40000
b10100 !
b10000 !
b10010 !
b10011 !
18
17
06
05
00
01
12
13
1'
1&
0%
0$
#45000
b11011 !
15
10
1$
#50000
b1011 !
b1010 !
08
04
0/
03
0'
0#
#55000
b1110 !
b1100 !
b11100 !
b11101 !
18
07
16
14
1/
11
02
13
1'
0&
1%
1#
#60000
b10101 !
b10111 !
17
05
00
12
1&
0$
#65000
b10110 !
b10100 !
08
07
02
03
0'
0&
#70000
b11100 !
b11101 !
b11111 !
18
17
15
10
12
13
1'
1&
1$
#75000
b11011 !
b1011 !
b11 !
b10 !
b0 !
08
07
06
05
04
0/
00
01
02
03
0'
0&
0%
0$
0#
#80000
b100 !
b10100 !
16
14
1/
11
1%
1#
#90000
b11100 !
b11101 !
18
15
10
13
1'
1$
#95000
b11001 !
06
01
0%
#100000
b11000 !
b11100 !
08
16
11
03
0'
1%
#105000
b11110 !
b1110 !
b110 !
17
05
04
0/
00
12
1&
0$
0#
#110000
b111 !
b11 !
b1 !
b10001 !
18
07
06
14
1/
01
02
13
1'
0&
0%
1#
#115000
b11001 !
b11011 !
b1011 !
17
15
04
0/
10
12
1&
1$
0#
#120000
b1010 !
b10 !
b0 !
b10000 !
08
07
05
14
1/
00
02
03
0'
0&
0$
1#
#125000
b10100 !
b10110 !
17
16
11
12
1&
1%
#130000
b10111 !
b111 !
b101 !
18
07
04
0/
02
13
1'
0&
0#
#135000
b1 !
b10001 !
b10011 !
17
06
14
1/
01
12
1&
0%
1#
#140000
b11011 !
b1011 !
15
04
0/
10
1$
0#
#145000
b1010 !
b1110 !
b1100 !
08
07
16
11
02
03
0'
0&
1%
#150000
b100 !
b101 !
b1 !
18
06
05
00
01
13
1'
0%
0$
#155000
b11 !
b1011 !
17
15
10
12
1&
1$
#160000
b11011 !
b10011 !
05
14
1/
00
0$
1#
#165000
b10111 !
b111 !
16
04
0/
11
1%
0#
#170000
b110 !
b100 !
b0 !
08
07
06
01
02
03
0'
0&
0%
#175000
b10000 !
b10010 !
17
14
1/
12
1&
1#
#180000
b11010 !
b1010 !
15
04
0/
10
1$
0#
#190000
b1011 !
b1001 !
b1 !
b10001 !
18
07
05
14
1/
00
02
13
1'
0&
0$
1#
#195000
b10101 !
b11101 !
16
15
10
11
1%
1$
#200000
b11111 !
17
12
1&
#205000
b11101 !
07
02
0&
#210000
b1101 !
04
0/
0#
#215000
b1111 !
b11111 !
17
14
1/
12
1&
1#
#220000
b11110 !
b11010 !
08
06
01
03
0'
0%
#225000
b10010 !
05
00
0$
#230000
b10000 !
b0 !
b1 !
b101 !
18
07
16
04
0/
11
02
13
1'
0&
1%
0#
#235000
b1 !
06
01
0%
#240000
b1001 !
b1011 !
b11011 !
b11010 !
b11110 !
08
17
16
15
14
1/
10
11
12
03
0'
1&
1%
1$
1#
#245000
b10110 !
b10100 !
07
05
00
02
0&
0$
#250000
b100 !
b1100 !
15
04
0/
10
1$
0#
#255000
b11100 !
14
1/
1#
#260000
b11101 !
b11111 !
b1111 !
18
17
04
0/
12
13
1'
1&
0#
#265000
b111 !
b10111 !
05
14
1/
00
0$
1#
#270000
b111 !
04
0/
0#
#275000
b110 !
b100 !
08
07
02
03
0'
0&
#280000
b0 !
b1000 !
b11000 !
06
15
14
1/
10
01
0%
1$
1#
#285000
b11001 !
b11101 !
18
16
11
13
1'
1%
#290000
b11111 !
b10111 !
b10110 !
b10010 !
08
17
06
05
00
01
12
03
0'
1&
0%
0$
#295000
b11010 !
b11011 !
18
15
10
13
1'
1$
#300000
b1011 !
b1001 !
07
04
0/
02
0&
0#
#305000
b1101 !
b101 !
b10101 !
b10111 !
17
16
05
14
1/
00
11
12
1&
1%
0$
1#
#315000
b10110 !
b11110 !
b11100 !
08
07
15
10
02
03
0'
0&
1$
#320000
b11000 !
b1000 !
b1001 !
b1 !
b11 !
18
17
06
05
04
0/
00
01
12
13
1'
1&
0%
0$
0#
#325000
b111 !
b1111 !
16
15
10
11
1%
1$
#330000
b11111 !
b11101 !
b11001 !
b10001 !
07
06
05
14
1/
00
01
02
0&
0%
0$
1#
#335000
b10000 !
b0 !
b10 !
08
17
04
0/
12
03
0'
1&
0#
#340000
b10010 !
14
1/
1#
#345000
b10110 !
b11110 !
b11111 !
b11101 !
18
07
16
15
10
11
02
13
1'
0&
1%
1$
#350000
b1101 !
b1001 !
b1000 !
08
06
04
0/
01
03
0'
0%
0#
#355000
b0 !
b10000 !
05
14
1/
00
0$
1#
#360000
b10001 !
b1 !
18
04
0/
13
1'
0#
#365000
b11 !
17
12
1&
#370000
b111 !
b101 !
07
16
11
02
0&
1%
#375000
b1101 !
b11101 !
15
14
1/
10
1$
1#
#380000
b11111 !
b1111 !
17
04
0/
12
1&
0#
#385000
b1011 !
b11 !
b10011 !
06
05
14
1/
00
01
0%
0$
1#
#390000
b10010 !
b10000 !
b0 !
08
07
04
0/
02
03
0'
0&
0#
#395000
b1000 !
b1001 !
b11001 !
18
15
14
1/
10
13
1'
1$
1#
#400000
b11011 !
b10011 !
b10010 !
b10 !
08
17
05
04
0/
00
12
03
0'
1&
0$
0#
#405000
b110 !
16
11
1%
#415000
b100 !
b101 !
b10101 !
b10001 !
18
07
06
14
1/
01
02
13
1'
0&
0%
1#
#420000
b10000 !
b0 !
08
04
0/
03
0'
0#
#425000
b1000 !
b1010 !
17
15
10
12
1&
1$
#430000
b1110 !
b1111 !
b11111 !
18
16
14
1/
11
13
1'
1%
1#
#435000
b10111 !
b10011 !
b10010 !
b10 !
08
06
05
04
0/
00
01
03
0'
0%
0$
0#
#440000
b0 !
b100 !
07
16
11
02
0&
1%
#445000
b101 !
b111 !
18
17
12
13
1'
1&
#450000
b1111 !
15
10
1$
#455000
b111 !
05
00
0$
#460000
b10111 !
b10011 !
b10010 !
b10000 !
08
07
06
14
1/
01
02
03
0'
0&
0%
1#
#465000
b11000 !
15
10
1$
#475000
b11100 !
b11101 !
b11111 !
18
17
16
11
12
13
1'
1&
1%
#480000
b1111 !
b111 !
05
04
0/
00
0$
0#
#485000
b110 !
b100 !
b10100 !
b11100 !
08
07
15
14
1/
10
02
03
0'
0&
1$
1#
#490000
b11101 !
b10101 !
18
05
00
13
1'
0$
#495000
b10100 !
b11100 !
08
15
10
03
0'
1$
#500000
b11000 !
b11001 !
18
06
01
13
1'
0%
#505000
b11011 !
b1011 !
b1111 !
17
16
04
0/
11
12
1&
1%
0#
#510000
b1101 !
b11101 !
07
14
1/
02
0&
1#
#515000
b1101 !
04
0/
0#
#520000
b1100 !
b1000 !
08
06
01
03
0'
0%
#535000
b1010 !
b1011 !
b1111 !
18
17
16
11
12
13
1'
1&
1%
#540000
b111 !
b10111 !
b10110 !
b10010 !
08
06
05
14
1/
00
01
03
0'
0%
0$
1#
#545000
b10000 !
b10001 !
18
07
02
13
1'
0&
#550000
b1 !
b11 !
17
04
0/
12
1&
0#
#555000
b111 !
b101 !
07
16
11
02
0&
1%
#560000
b1101 !
b11101 !
b11001 !
06
15
14
1/
10
01
0%
1$
1#
#565000
b11011 !
b10011 !
b11 !
b111 !
17
16
05
04
0/
00
11
12
1&
1%
0$
0#
#570000
b110 !
b100 !
b1100 !
b11100 !
b11000 !
08
07
06
15
14
1/
10
01
02
03
0'
0&
0%
1$
1#
#575000
b11001 !
b11011 !
b10011 !
b11 !
18
17
05
04
0/
00
12
13
1'
1&
0$
0#
#580000
b10011 !
14
1/
1#
#585000
b10001 !
b1 !
07
04
0/
02
0&
0#
#590000
b101 !
16
11
1%
#595000
b1101 !
b1001 !
06
15
10
01
0%
1$
#600000
b1000 !
b1100 !
08
16
11
03
0'
1%
#605000
b11100 !
b11101 !
b11001 !
18
06
14
1/
01
13
1'
0%
1#
#610000
b1001 !
b1101 !
16
04
0/
11
1%
0#
#615000
b1111 !
b111 !
b110 !
b10110 !
b10010 !
08
17
06
05
14
1/
00
01
12
03
0'
1&
0%
0$
1#
#620000
b11010 !
b11011 !
18
15
10
13
1'
1$
#625000
b1011 !
b11 !
05
04
0/
00
0$
0#
#630000
b1 !
b10001 !
07
14
1/
02
0&
1#
#635000
b10101 !
b101 !
16
04
0/
11
1%
0#
#640000
b100 !
b10100 !
08
14
1/
03
0'
1#
#650000
b10000 !
b10001 !
18
06
01
13
1'
0%
#655000
b10011 !
b10111 !
17
16
11
12
1&
1%
#660000
b11111 !
b11110 !
b11100 !
b11000 !
08
07
06
15
10
01
02
03
0'
0&
0%
1$
#665000
b10000 !
b10100 !
16
05
00
11
1%
0$
#670000
b10110 !
b10010 !
17
06
01
12
1&
0%
#675000
b10 !
b1010 !
15
04
0/
10
1$
0#
#680000
b1011 !
b1001 !
b1101 !
b11101 !
b10101 !
18
07
16
05
14
1/
00
11
02
13
1'
0&
1%
0$
1#
#685000
b10111 !
17
12
1&
#690000
b11111 !
15
10
1$
#695000
b11110 !
b11010 !
b10010 !
08
06
05
00
01
03
0'
0%
0$
#700000
b10 !
04
0/
0#
#705000
b0 !
b1 !
b10001 !
18
07
14
1/
02
13
1'
0&
1#
#710000
b10000 !
b0 !
08
04
0/
03
0'
0#
#715000
b100 !
b110 !
b111 !
18
17
16
11
12
13
1'
1&
1%
#725000
b1111 !
b1101 !
07
15
10
02
0&
1$
#730000
b1001 !
b1000 !
08
06
01
03
0'
0%
#740000
b11000 !
b10000 !
b10100 !
16
05
14
1/
00
11
1%
0$
1#
#745000
b100 !
b1100 !
15
04
0/
10
1$
0#
#755000
b1110 !
b1010 !
17
06
01
12
1&
0%
#760000
b11010 !
b11000 !
b11100 !
07
16
14
1/
11
02
0&
1%
1#
#765000
b11101 !
b10101 !
18
05
00
13
1'
0$
#770000
b101 !
b111 !
b11 !
b10 !
b1010 !
08
17
06
15
04
0/
10
01
12
03
0'
1&
0%
1$
0#
#775000
b1000 !
b1100 !
b1101 !
b101 !
18
07
16
05
00
11
02
13
1'
0&
1%
0$
#780000
b111 !
b110 !
08
17
12
03
0'
1&
#785000
b100 !
b101 !
18
07
02
13
1'
0&
#790000
b1 !
06
01
0%
#795000
b1001 !
b1011 !
b1010 !
08
17
15
10
12
03
0'
1&
1$
#800000
b10 !
b0 !
07
05
00
02
0&
0$
#805000
b10000 !
b10100 !
b10101 !
b11101 !
b11111 !
18
17
16
15
14
1/
10
11
12
13
1'
1&
1%
1$
1#
#810000
b1111 !
b1011 !
b1010 !
08
06
04
0/
01
03
0'
0%
0#
#815000
b1000 !
b11000 !
b11001 !
18
07
14
1/
02
13
1'
0&
1#
#820000
b10001 !
b10011 !
17
05
00
12
1&
0$
#825000
b11 !
04
0/
0#
#830000
b10 !
b0 !
08
07
02
03
0'
0&
#835000
b100 !
b101 !
18
16
11
13
1'
1%
#840000
b1101 !
b11101 !
b11001 !
b11000 !
08
06
15
14
1/
10
01
03
0'
0%
1$
1#
#845000
b11010 !
b10010 !
b10110 !
17
16
05
00
11
12
1&
1%
0$
#850000
b10111 !
18
13
1'
#855000
b111 !
b1111 !
b1011 !
06
15
04
0/
10
01
0%
1$
0#
#860000
b11011 !
b10011 !
05
14
1/
00
0$
1#
#865000
b11 !
b1011 !
15
04
0/
10
1$
0#
#870000
b1010 !
b11010 !
08
14
1/
03
0'
1#
#875000
b11000 !
b11100 !
b11101 !
18
07
16
11
02
13
1'
0&
1%
#880000
b11100 !
08
03
0'
#885000
b1100 !
b1000 !
06
04
0/
01
0%
0#
#890000
b1010 !
b11010 !
17
14
1/
12
1&
1#
#895000
b11011 !
b1011 !
18
04
0/
13
1'
0#
#900000
b11 !
05
00
0$
#905000
b111 !
b101 !
b100 !
08
07
16
11
02
03
0'
0&
1%
#910000
b1100 !
b1000 !
b1001 !
18
06
15
10
01
13
1'
0%
1$
#915000
b1011 !
b1010 !
08
17
12
03
0'
1&
#920000
b10 !
b0 !
b1 !
18
07
05
00
02
13
1'
0&
0$
#925000
b101 !
b1101 !
16
15
10
11
1%
1$
#930000
b11101 !
b11111 !
b10111 !
17
05
14
1/
00
12
1&
0$
1#
#935000
b10110 !
b10010 !
08
06
01
03
0'
0%
#940000
b10 !
b0 !
b1 !
b101 !
18
07
16
04
0/
11
02
13
1'
0&
1%
0#
#945000
b1101 !
b1111 !
b1110 !
08
17
15
10
12
03
0'
1&
1$
#950000
b11110 !
b10110 !
b10100 !
b10101 !
18
07
05
14
1/
00
02
13
1'
0&
0$
1#
#955000
b10001 !
b1 !
b11 !
17
06
04
0/
01
12
1&
0%
0#
#960000
b10011 !
b10001 !
07
14
1/
02
0&
1#
#965000
b11001 !
b11000 !
b1000 !
08
15
04
0/
10
03
0'
1$
0#
#970000
b1100 !
b1110 !
b1111 !
18
17
16
11
12
13
1'
1&
1%
#975000
b111 !
b10111 !
05
14
1/
00
0$
1#
#980000
b10110 !
b11110 !
08
15
10
03
0'
1$
#985000
b1110 !
04
0/
0#
#990000
b1010 !
b1011 !
b11 !
18
06
05
00
01
13
1'
0%
0$
#995000
b10011 !
14
1/
1#
