adder/simulation/qsim/adder.msim.vcd
$comment
	File created using the following command:
		vcd file adder.msim.vcd -direction
$end
$date
	Mon Jan 23 12:01:36 2023
$end
$version
	ModelSim Version 2020.1
$end
$timescale
	1ps
$end

$scope module comparison_MT_vlg_vec_tst $end
$var reg 5 ! bitA [4:0] $end
$var reg 5 " bitB [4:0] $end
$var wire 1 # ans $end

$scope module i1 $end
$var wire 1 $ gnd $end
$var wire 1 % vcc $end
$var wire 1 & unknown $end
$var tri1 1 ' devclrn $end
$var tri1 1 ( devpor $end
$var tri1 1 ) devoe $end
$var wire 1 * ans~output_o $end
$var wire 1 + bitA[4]~input_o $end
$var wire 1 , bitB[4]~input_o $end
$var wire 1 - bitA[3]~input_o $end
$var wire 1 . bitB[3]~input_o $end
$var wire 1 / bitA[2]~input_o $end
$var wire 1 0 bitA[1]~input_o $end
$var wire 1 1 bitA[0]~input_o $end
$var wire 1 2 bitB[0]~input_o $end
$var wire 1 3 bitB[1]~input_o $end
$var wire 1 4 inst1~0_combout $end
$var wire 1 5 bitB[2]~input_o $end
$var wire 1 6 inst1~1_combout $end
$var wire 1 7 inst1~2_combout $end
$var wire 1 8 inst1~3_combout $end
$upscope $end
$upscope $end
$enddefinitions $end
#0
$dumpvars
b10101 !
b10 "
1#
0$
1%
x&
1'
1(
1)
1*
1+
0,
0-
0.
1/
00
11
02
13
04
05
16
17
18
$end
#5000
b101 !
b111 !
b10010 "
b10110 "
b10100 "
b10101 "
12
03
15
1,
10
0+
14
06
08
0*
16
07
0#
17
#10000
b11 !
b11101 "
b1 !
b1101 "
b1001 "
b1011 "
b1010 "
02
13
05
1.
0,
00
0/
04
07
18
1*
06
1#
08
0*
0#
#15000
b1001 !
b11001 !
b10 "
b110 "
15
0.
1-
1+
17
18
1*
1#
#20000
b111 "
12
#25000
b11000 !
b10000 !
b0 !
b1111 "
b1011 "
05
1.
01
0-
0+
07
08
0*
0#
#30000
b100 !
b11011 "
b11001 "
b11000 "
b1100 !
b10000 "
b10100 "
02
03
15
0.
1,
1/
1-
17
#35000
b1101 !
b11101 !
b100 "
b101 "
b10101 !
b1101 "
b1001 "
12
05
1.
0,
11
0-
1+
16
07
18
1*
1#
#40000
b10100 !
b100 !
b1000 "
b0 "
02
0.
01
0+
17
08
0*
0#
18
1*
1#
#45000
b10 "
b10010 "
b1100 !
b10110 "
b10111 "
b11111 "
1-
12
13
15
1.
1,
06
08
0*
07
0#
#50000
b1111 "
b1011 "
b1010 "
02
05
0,
16
17
18
1*
1#
#55000
b1101 !
b1000 "
b11000 "
b11100 "
03
15
1,
11
14
06
08
0*
16
07
0#
17
#60000
b1111 !
b1011 !
b11011 !
b10011 !
b11110 "
b1110 "
b1010 "
13
05
0,
10
0/
0-
1+
07
18
1*
1#
#65000
b10010 !
b10110 !
b11110 !
b1000 "
b11000 "
03
1,
01
1/
1-
17
08
0*
0#
18
1*
1#
#70000
b10000 "
b11100 !
b10100 "
b11101 !
b10110 "
11
00
13
15
0.
04
06
#75000
b10111 "
b10101 !
b11111 "
b11011 "
b11001 "
0-
12
03
05
1.
07
16
08
0*
0#
#80000
b1001 "
b10111 !
b1000 "
b11111 !
b0 "
b10 "
10
1-
02
13
0.
0,
14
17
18
1*
1#
#85000
b11011 !
b10010 "
b11001 !
b10011 "
b10001 !
b11011 "
b11001 "
12
03
1.
1,
00
0/
0-
04
07
06
08
0*
0#
#90000
b1 !
b0 !
b11101 "
b100 !
b1101 "
b110 !
b1100 "
b100 "
b110 "
02
13
15
0.
0,
01
10
1/
0+
#95000
b10110 !
b10 "
b10010 "
b10000 "
03
05
1,
1+
14
16
17
18
1*
1#
#100000
b10111 !
b10011 !
b0 "
0,
11
0/
#105000
b11011 !
b1000 "
b1011 !
b1111 !
1.
1/
1-
0+
#110000
b111 !
b11 !
0/
0-
07
08
0*
0#
#115000
b1001 "
b1101 "
b1011 !
1-
12
15
17
06
07
18
1*
1#
08
0*
0#
#120000
b1001 !
b101 "
b11001 !
b11101 !
b10101 !
0.
00
1/
0-
1+
04
16
18
1*
06
17
1#
07
#125000
b10100 !
b10101 "
b10100 "
b10000 "
b10000 !
b11000 !
02
05
1,
01
0/
1-
17
08
0*
0#
18
1*
1#
#130000
b11001 !
b0 "
b1 "
b101 "
12
15
0,
11
#135000
b111 "
b1001 !
b1 !
b10111 "
b10110 "
b10010 "
0-
0+
02
13
05
1,
07
08
0*
0#
#140000
b0 !
b10000 !
b10011 "
12
01
1+
#145000
b11011 "
b11000 !
b11001 !
b1001 !
b11010 "
11
1-
0+
02
1.
#150000
b1011 !
b1010 "
b11 !
b10 !
b10010 !
b1011 "
12
0,
01
10
0-
1+
18
1*
1#
#155000
b11 "
b10011 "
b10 !
b10010 "
0+
02
0.
1,
08
0*
0#
#160000
b110 !
b10000 "
b100 !
b1100 !
b11000 "
b11001 "
12
03
1.
00
1/
1-
16
17
#165000
b1001 "
b11100 !
b1 "
1+
0.
0,
18
1*
1#
#170000
b101 "
b11110 !
b10110 !
10
0-
15
14
06
16
07
17
#175000
b10111 !
b10011 !
b10101 "
b11101 "
b10001 !
1.
1,
11
00
0/
07
04
06
08
0*
0#
#180000
b11001 "
b10000 !
b10001 "
b10010 !
01
10
05
0.
14
16
17
18
1*
1#
#185000
b10 !
b10101 "
b11101 "
b0 !
15
1.
00
0+
06
07
04
08
0*
0#
#190000
b11111 "
b100 !
b1111 "
b10100 !
1/
1+
13
0,
18
1*
1#
#195000
b1110 "
b11100 !
b11101 !
b1010 "
b10 "
b11111 !
b11011 !
b10010 "
11
10
0/
1-
02
05
0.
1,
14
17
08
0*
16
0#
18
1*
1#
#200000
b10011 "
b11011 "
b11001 !
00
12
1.
04
06
07
08
0*
0#
#205000
b1001 !
b11111 "
b1101 !
b1111 "
b1110 "
b1111 !
02
15
0,
10
1/
0+
14
16
17
18
1*
1#
#210000
b1100 "
b1000 "
b11000 "
b11001 "
12
03
05
1,
08
0*
0#
#215000
b111 !
b110 !
b10001 "
b10101 "
b10100 "
02
15
0.
01
0-
#220000
b10110 "
b110 "
b111 !
b1110 "
b1111 "
11
12
13
1.
0,
04
07
18
1*
06
1#
08
0*
0#
#225000
b10111 !
b1011 "
b11011 "
b10110 !
05
1,
01
1+
16
#230000
b10100 !
b11100 !
b11001 "
b10001 "
b10000 "
b10100 "
b11101 !
02
03
15
0.
11
00
1-
14
06
17
16
18
1*
1#
#235000
b11001 !
b11011 !
b10011 !
b10110 "
b10010 "
b10010 !
13
05
01
10
0/
0-
04
06
07
08
0*
0#
#240000
b10 !
b10 "
b1010 "
b1010 !
1.
0,
1-
0+
#245000
b1011 "
b1110 !
b1100 !
b1111 "
b1101 !
b11101 !
b111 "
11
00
1/
1+
12
15
0.
17
18
1*
1#
#250000
b10101 !
b10001 !
b10011 !
b11 !
b1111 "
1.
10
0/
0-
0+
07
08
0*
0#
#255000
b1101 "
b11101 "
b1011 !
b1111 !
b11111 !
b10101 "
1/
1-
1+
03
0.
1,
17
14
16
18
1*
1#
#260000
b11110 !
b101 "
b10110 !
b10010 !
b10 !
b1101 "
1.
0,
01
0/
0-
0+
07
06
08
0*
0#
#265000
b1001 "
b0 !
b1011 "
b1 !
b11011 "
b1001 !
b11001 !
11
00
1-
1+
13
05
1,
04
16
06
17
07
18
1*
1#
08
0*
0#
#270000
b11101 !
b11111 !
b1111 !
10
1/
0+
16
17
#275000
b11010 "
b10010 "
b10000 "
b1110 !
b0 "
01
02
03
0.
0,
14
18
1*
1#
#280000
b100 "
b1100 !
b11100 !
b1100 "
b1110 "
b11101 !
b11110 "
11
00
1+
13
15
1.
1,
04
06
07
08
0*
0#
#285000
b10101 !
b10001 !
b11111 "
b11011 "
b10011 !
b11001 "
b10010 !
b1001 "
12
03
05
0,
01
10
0/
0-
14
18
1*
16
1#
#290000
b10 !
b1010 !
b1101 "
b1000 !
b1111 "
b1001 !
b11111 "
13
15
1,
11
00
1-
0+
04
06
17
08
0*
07
0#
#295000
b10111 "
b1101 !
b10011 "
b1111 !
b11 "
10
1/
05
0.
0,
16
17
18
1*
1#
#300000
b1110 !
b1100 !
01
00
#305000
b10 "
b0 "
b1000 "
b1100 "
b11100 "
02
03
15
1.
1,
06
08
0*
07
0#
#310000
b100 !
b101 !
b11110 "
b1110 "
13
0,
11
0-
#315000
b1 !
b11 !
b1111 "
b1011 !
b11111 "
12
1,
10
0/
1-
#320000
b10111 "
b10011 "
b1010 !
b10001 "
b10000 "
b10 !
b0 "
01
0-
02
03
05
0.
0,
14
16
17
18
1*
1#
#325000
b10010 !
b1000 "
b1100 "
b1110 "
b11010 !
b11110 "
13
15
1.
1,
1-
1+
04
06
07
08
0*
0#
#330000
b11011 !
b11111 "
b1111 "
12
0,
11
18
1*
1#
#335000
b11111 !
b1011 "
b1001 "
03
05
1/
14
16
17
#340000
b1111 !
b1000 "
b11000 "
b11010 "
02
13
1,
0+
08
0*
0#
#345000
b1101 !
b10010 "
b1100 !
b1000 !
b10 "
0.
0,
01
00
0/
04
18
1*
06
1#
#350000
b0 !
b11 "
b1011 "
12
1.
0-
07
08
0*
0#
#355000
b1111 "
b10000 !
b1101 "
b10010 !
b10110 !
b11101 "
b11110 !
b10101 "
10
1/
1-
1+
03
15
0.
1,
14
17
16
18
1*
1#
#360000
b1110 !
b10111 "
b1100 !
b1000 !
b0 !
b11111 "
13
1.
00
0/
0-
0+
04
07
06
08
0*
0#
#365000
b1 !
b11110 "
b11010 "
b1010 "
b1000 "
b101 !
b0 "
02
03
05
0.
0,
11
1/
14
16
17
18
1*
1#
#370000
b10101 !
b10111 !
b10110 !
b1 "
b1001 "
12
1.
01
10
1+
07
#375000
b11110 !
b1011 "
b11111 !
b11 "
13
0.
11
1-
04
17
#380000
b111 "
b11011 !
b1011 !
b1001 !
b110 "
00
0/
0+
02
15
06
#385000
b1 !
b0 !
b1110 "
b100 !
b110 !
b1111 "
12
1.
01
10
1/
0-
07
08
0*
0#
#390000
b1101 "
b101 "
b10 !
b0 !
b100 "
00
0/
02
03
0.
#395000
b0 "
b1 !
b10 "
b11 "
11
12
13
05
#400000
b1001 !
b1011 !
b1010 !
01
10
1-
17
18
1*
1#
#405000
b10011 "
b11011 "
b1110 !
b11010 "
b1100 !
b1101 !
11
00
1/
02
1.
1,
16
07
08
0*
17
0#
#410000
b11110 "
b11100 "
b101 !
b1 !
b11101 "
b11 !
b10 !
01
10
0/
0-
12
03
15
14
06
07
#415000
b1101 "
b101 "
b1010 !
b100 "
1-
02
0.
0,
17
18
1*
1#
#420000
b0 "
b10 "
b1110 !
b1010 "
b110 !
1/
0-
13
05
1.
16
07
04
08
0*
0#
#425000
b10110 !
b10100 !
b1110 "
b1100 "
b100 "
b11100 !
03
15
0.
00
1-
1+
06
17
18
1*
1#
#430000
b10100 "
b1100 !
b1110 !
b10110 "
b11110 "
10
0+
13
1.
1,
07
08
0*
0#
#435000
b1111 !
b11111 "
b1011 !
b11 !
b10011 !
b11101 "
12
03
11
0/
0-
1+
14
#440000
b11001 "
b10001 !
b10001 "
b10000 !
b10000 "
b11000 !
b1000 !
01
00
1-
0+
02
05
0.
04
17
16
06
#445000
b10010 "
b1010 !
b1011 !
b10011 "
b11 !
11
10
0-
12
13
07
#450000
b111 !
b10111 !
b10001 "
b10110 !
b11110 !
03
01
1/
1-
1+
14
16
17
18
1*
1#
#455000
b11001 "
b11000 "
b11010 "
02
13
1.
04
#460000
b11100 !
b11000 !
b1000 !
b1001 !
b11011 "
b11001 "
12
03
11
00
0/
0+
06
08
0*
07
0#
#465000
b1001 "
b1101 "
b1011 !
b1111 !
b1100 "
10
1/
02
15
0,
14
16
17
18
1*
1#
#470000
b11111 !
b11100 "
b11000 "
b11001 "
12
05
1,
1+
#475000
b10111 !
b10110 !
b11011 "
b1011 "
13
0,
01
0-
04
07
#480000
b110 !
b1111 "
b1110 "
b1110 !
b11110 "
02
15
1,
1-
0+
06
17
08
0*
07
0#
#485000
b1010 !
b1011 !
b11100 "
b11011 !
b11000 "
b11001 "
b1001 "
12
03
05
0,
11
0/
1+
14
18
1*
16
1#
17
#490000
b1 "
b11001 !
b10001 !
b10000 !
b11 "
b0 !
b10011 "
01
00
0-
0+
13
0.
1,
04
08
0*
06
0#
07
#495000
b10111 "
b10110 "
b11110 "
b1 !
b10001 !
11
1+
02
15
1.
#500000
b10101 !
b10111 !
b11111 !
b1110 "
b1010 "
b1011 "
b11110 !
12
05
0,
01
10
1/
1-
16
18
1*
17
1#
#505000
b11 "
b1110 !
b1010 !
b1000 !
b10011 "
b10010 "
00
0/
0+
02
0.
1,
06
08
0*
0#
#510000
b10000 "
b1001 !
b11001 !
b11011 !
11
10
1+
03
14
18
1*
16
1#
#515000
b10011 !
b10010 "
b10010 !
b10 !
b0 !
13
01
00
0-
0+
04
08
0*
06
0#
07
#520000
b11010 "
b11011 "
b11001 "
b1 !
b10001 !
b10011 !
11
10
1+
12
03
1.
14
16
#525000
b11101 "
b10111 !
b1101 "
b11111 !
b101 "
b100 "
b110 "
b1111 !
b1101 !
00
1/
1-
0+
02
13
15
0.
0,
04
17
06
18
1*
1#
#530000
b10 "
b101 !
b10101 !
0-
1+
05
07
16
17
#535000
b10100 !
b1010 "
b1011 "
b1001 "
b100 !
12
03
1.
01
0+
07
08
0*
0#
#540000
b11001 "
b11101 "
15
1,
06
#545000
b11100 "
b11110 "
b10100 !
1+
02
13
#550000
b10000 !
b10110 "
b110 "
b0 !
0.
0,
0/
0+
#555000
b10 "
b11 "
b100 !
b1011 "
b11011 "
b10100 !
1/
1+
12
05
1.
1,
16
#560000
b10101 !
b11001 "
b11101 "
b11100 "
b10001 !
b10100 "
02
03
15
0.
11
0/
14
06
17
07
18
1*
1#
08
0*
0#
#565000
b11001 !
b11000 !
b10110 "
b10111 "
12
13
01
1-
04
17
18
1*
1#
#570000
b11010 !
b111 "
b1010 !
b1110 !
b110 !
b110 "
02
0,
10
1/
0-
0+
07
08
0*
0#
#575000
b10 "
b1010 "
b11010 "
b10110 !
b10010 !
b11010 !
0/
1-
1+
05
1.
1,
#580000
b11000 "
b11001 "
b10001 "
b1 "
12
03
0.
0,
14
17
18
1*
16
1#
#585000
b10010 !
b11 "
13
0-
04
06
07
#590000
b10011 !
b111 "
b11 !
b111 !
b110 "
b1110 "
b11110 "
02
15
1.
1,
11
1/
0+
14
08
0*
16
0#
#595000
b11010 "
b11 !
b10010 "
b10 "
0/
05
0.
0,
17
18
1*
1#
#600000
b1 !
b1001 !
b0 "
b11001 !
b1 "
b11101 !
b1001 "
b11001 "
12
03
1.
1,
00
1/
1-
1+
04
#605000
b10101 !
b11011 "
b11010 "
b10001 !
b10010 "
b10 "
02
13
0.
0,
0/
0-
06
07
#610000
b10011 !
b11 !
b1011 !
b1111 !
b10010 "
1,
10
1/
1-
0+
14
16
17
08
0*
0#
#615000
b1110 !
b10000 "
b10001 "
b11001 "
b1100 !
b100 !
b0 !
12
03
1.
01
00
0/
0-
04
07
06
#620000
b11011 "
b11010 "
b10 !
b1010 !
10
1-
02
13
#625000
b11110 "
b11010 !
b1110 "
b11110 !
b1111 "
b11100 !
b10100 !
00
1/
0-
1+
12
15
0,
18
1*
1#
#630000
b1011 "
b100 !
b1010 "
0+
02
05
16
08
0*
0#
#635000
b0 !
b1000 !
b1110 "
15
0/
1-
06
17
07
18
1*
1#
08
0*
0#
#640000
b1001 !
b1100 "
b1011 !
b11011 !
b11111 !
b1000 "
03
05
11
10
1/
1+
14
16
18
1*
17
1#
#645000
b1010 "
b11101 !
b1110 "
00
13
15
04
06
07
#650000
b110 "
b10110 "
b10111 "
b1101 !
b1001 !
b10101 "
b1011 !
b10001 "
10
0/
0+
12
03
05
0.
1,
14
17
08
0*
16
0#
#655000
b11001 "
b1001 "
b11011 !
b1101 "
1+
15
1.
0,
06
18
1*
07
1#
#660000
b10011 !
b10010 !
b10110 !
b1111 "
b10100 !
b111 "
b10111 "
b10011 "
13
05
0.
1,
01
00
1/
0-
04
16
08
0*
17
0#
18
1*
1#
#665000
b10010 "
b11100 !
b11000 !
b10000 "
b0 "
b100 "
0/
1-
02
03
15
0,
06
#670000
b11001 !
b11011 !
b1100 "
b1101 "
b11111 !
b11101 "
12
1.
1,
11
10
1/
14
07
16
08
0*
17
0#
18
1*
1#
#675000
b10111 !
b11111 "
b10101 !
b10111 "
b10001 !
b111 "
13
0.
0,
00
0/
0-
04
06
07
#680000
b11 "
b10 "
b10011 !
b10111 !
b10010 "
10
1/
02
05
1,
14
16
08
0*
17
0#
18
1*
1#
#685000
b111 !
b11010 "
b101 !
1.
00
0+
07
04
08
0*
0#
#690000
b1101 !
b1001 !
b1011 !
10
0/
1-
14
06
17
16
07
17
#695000
b11110 "
b1110 "
b11011 !
b110 "
b11111 !
1/
1+
15
0.
0,
18
1*
1#
#700000
b11101 !
b10 "
b1101 !
b1010 "
05
1.
00
0+
04
#705000
b1100 !
b1011 "
b100 !
b11011 "
b0 !
b10000 !
12
1,
01
0/
0-
1+
06
07
08
0*
0#
#710000
b11001 "
b11101 "
b10101 "
b10001 !
b10100 "
11
02
03
15
0.
14
#715000
b10011 !
b100 "
b10111 !
b1100 "
b10110 !
b1101 "
12
1.
0,
01
10
1/
16
18
1*
1#
#720000
b11110 !
b1110 !
b11101 "
b1010 !
b10101 "
0.
1,
0/
1-
0+
17
06
08
0*
0#
#725000
b10111 "
b1000 !
b1001 !
b1 !
b111 "
b101 !
b1111 "
11
00
1/
0-
13
1.
0,
04
16
07
18
1*
06
1#
08
0*
0#
#730000
b1110 "
b10101 !
b1100 "
b11100 "
1+
02
03
1,
14
16
#735000
b11000 "
b10100 !
b11001 "
b100 !
b11011 "
b1011 "
01
0+
12
13
05
0,
04
#740000
b1111 "
b101 !
b10101 !
b1101 "
b11101 "
11
1+
03
15
1,
06
#745000
b11100 "
b11000 "
b10100 !
b100 !
b1000 "
01
0+
02
05
0,
16
#750000
b0 !
b1001 "
b1 !
b10001 !
12
11
0/
1+
06
18
1*
1#
#755000
b10011 !
b1011 "
b1111 "
b1110 "
02
13
15
10
14
#760000
b110 "
b10111 !
b100 "
b0 "
1/
03
05
0.
16
17
#765000
b10000 "
b10110 !
b11000 "
b10010 !
01
0/
1.
1,
07
08
0*
0#
#770000
b11010 !
b11000 !
b11001 "
b11101 "
12
15
00
1-
04
06
17
07
18
1*
1#
08
0*
0#
#775000
b1101 "
b11001 !
b101 "
b11101 !
b100 "
11
1/
02
0.
0,
14
17
18
1*
16
1#
#780000
b10101 !
b10100 "
b10100 !
b10000 !
b10101 "
12
1,
01
0/
0-
04
06
07
08
0*
0#
#785000
b0 !
b10111 "
b10 !
b10011 "
b11011 "
b1010 !
b1011 "
b1010 "
02
13
05
1.
0,
10
1-
0+
#790000
b1011 !
b1111 !
b11111 !
b1000 "
b1100 "
b1101 "
12
03
15
11
1/
1+
14
18
1*
16
1#
17
#795000
b10111 !
b10011 !
b1001 "
05
0/
0-
07
#800000
b10001 !
b1 "
b10001 "
b1 !
b101 !
b10101 "
15
0.
1,
00
1/
0+
17
04
08
0*
06
0#
07
#805000
b10100 "
b100 "
b10101 !
1+
02
0,
14
18
1*
16
1#
17
#810000
b10001 !
0/
06
07
#815000
b10000 !
b110 "
b10010 !
b1110 "
b1111 "
b10110 !
12
13
1.
01
10
1/
04
16
06
#820000
b10111 !
b1101 "
b10011 !
03
11
0/
14
#825000
b1001 "
b11 !
b1 !
b1 "
b0 !
b11 "
01
00
0+
13
05
0.
04
16
08
0*
06
17
0#
07
18
1*
1#
08
0*
0#
#830000
b10011 "
b10111 "
b10 !
10
15
1,
#835000
b1010 !
b1110 !
b11110 !
b10101 "
b10001 "
b11100 !
03
05
00
1/
1-
1+
16
17
18
1*
1#
#840000
b11101 !
b11001 !
b11011 !
11
10
0/
14
06
16
#845000
b11001 "
b11011 "
13
1.
04
06
07
08
0*
0#
#850000
b11010 "
b1010 "
b1011 !
b1010 !
b1110 !
b1100 !
b10 "
b0 "
01
00
1/
0+
02
03
0.
0,
16
17
18
1*
1#
#855000
b1101 !
b1001 !
11
0/
14
06
16
#860000
b11001 !
b1000 "
b1010 "
b11101 !
13
1.
1/
1+
04
#865000
b10101 !
b1110 "
b1111 "
b10111 !
b10110 !
b110 !
b111 "
b101 "
12
03
15
0.
01
10
0-
0+
14
06
16
07
17
08
0*
0#
18
1*
1#
#870000
b10101 "
b10 !
b10001 "
b10000 "
b0 !
b11000 "
b11010 "
00
0/
02
13
05
1.
1,
04
07
08
0*
06
0#
#875000
b11110 "
b11111 "
b10 !
b11101 "
10
12
03
15
14
#880000
b1010 !
b1011 !
b1111 !
b11100 "
02
11
1/
1-
16
17
#885000
b11111 !
b1100 "
b1000 "
b10111 !
b1001 "
12
05
0,
0-
1+
07
18
1*
1#
#890000
b1 "
b11 "
b10011 !
b11 !
b10011 "
b10111 "
0/
0+
13
15
0.
1,
06
04
17
08
0*
07
0#
#895000
b10 !
b10110 "
b10100 "
b10010 !
b10000 "
02
03
05
01
1+
14
16
17
18
1*
1#
#900000
b10010 "
13
04
06
07
08
0*
0#
#905000
b10000 !
b10001 !
b1 !
b10110 "
b10100 "
03
15
11
00
0+
14
#910000
b1001 !
b100 "
b1000 !
b11000 !
b0 "
05
0,
01
1-
1+
16
04
17
18
1*
06
1#
#915000
b1000 "
b11100 !
b11000 "
b11101 !
b1101 !
11
1/
0+
1.
1,
14
16
07
08
0*
17
0#
#920000
b11001 "
b11011 "
b1001 !
b1011 "
b1000 !
01
0/
12
13
0,
04
18
1*
06
1#
07
08
0*
0#
#925000
b1010 !
b1111 "
b111 "
b101 "
b1110 !
b10101 "
b1111 !
03
15
0.
1,
11
10
1/
14
17
16
#930000
b11111 !
b10100 "
b11100 "
b11110 "
b11011 !
b1110 "
b11010 !
02
13
1.
0,
01
0/
1+
04
06
18
1*
07
1#
#935000
b10010 !
b10 !
b110 "
0.
0-
0+
08
0*
0#
#940000
b10 "
b11 "
b1 "
b1010 !
b1001 "
1-
12
03
05
1.
14
16
17
18
1*
1#
#945000
b11001 "
b11101 "
b11111 "
b10 !
0-
13
15
1,
07
04
06
08
0*
0#
#950000
b0 !
b100 !
b101 !
b10101 !
b11110 "
b1110 "
b1010 "
b11101 !
02
05
0,
11
00
1/
1-
1+
16
18
1*
17
1#
#955000
b1000 "
b1101 !
b11000 "
b101 !
0-
0+
03
1,
07
14
08
0*
0#
#960000
b111 !
b11 !
b11001 "
b1001 "
b1011 !
12
0,
10
0/
1-
17
18
1*
1#
#965000
b1010 !
b1101 "
b1100 "
02
15
01
06
07
08
0*
0#
#970000
b100 "
b110 "
b11010 !
b11000 !
b10110 "
b10000 !
b10111 "
00
0-
1+
12
13
0.
1,
04
#975000
b10100 !
b10011 "
b10001 "
b10110 !
b1 "
03
05
0,
10
1/
14
16
18
1*
17
1#
#980000
b1001 "
b1000 "
b10010 !
b1010 "
b10000 !
00
0/
02
13
1.
04
07
06
#985000
b0 !
b10 "
b11 "
b1 "
b10 !
12
03
0.
10
0+
14
08
0*
16
0#
17
18
1*
1#
#990000
b10001 "
b10010 !
b11001 "
b11000 "
b10000 !
00
1+
02
1.
1,
04
07
06
08
0*
0#
#995000
b10001 !
b11001 !
b11101 !
b1000 "
b1001 "
b11111 !
12
0,
11
10
1/
1-
14
16
18
1*
17
1#
